OriginalSources/Ttotal/simulation/qsim/FourBitCounter.msim.vcd
$comment
	File created using the following command:
		vcd file FourBitCounter.msim.vcd -direction
$end
$date
	Sun Dec 09 20:45:02 2018
$end
$version
	ModelSim Version 10.5b
$end
$timescale
	1ps
$end

$scope module FourBitCounter_vlg_vec_tst $end
$var reg 1 ! clear $end
$var reg 1 " CLK $end
$var reg 1 # tn0 $end
$var reg 1 $ tn1 $end
$var reg 1 % tn2 $end
$var reg 1 & tn3 $end
$var reg 1 ' tn4 $end
$var reg 1 ( tn5 $end
$var reg 1 ) tn6 $end
$var reg 1 * tn7 $end
$var reg 1 + tn8 $end
$var reg 1 , tn9 $end
$var reg 1 - tn10 $end
$var reg 1 . tn11 $end
$var reg 1 / tn12 $end
$var reg 1 0 tn13 $end
$var reg 1 1 tn14 $end
$var reg 1 2 tn15 $end
$var wire 1 3 a $end
$var wire 1 4 b $end
$var wire 1 5 c $end
$var wire 1 6 d $end
$var wire 1 7 total_1 $end
$var wire 1 8 total_2 $end
$var wire 1 9 total_3 $end
$var wire 1 : total_4 $end

$scope module i1 $end
$var wire 1 ; gnd $end
$var wire 1 < vcc $end
$var wire 1 = unknown $end
$var tri1 1 > devclrn $end
$var tri1 1 ? devpor $end
$var tri1 1 @ devoe $end
$var wire 1 A a~output_o $end
$var wire 1 B b~output_o $end
$var wire 1 C c~output_o $end
$var wire 1 D d~output_o $end
$var wire 1 E total_1~output_o $end
$var wire 1 F total_2~output_o $end
$var wire 1 G total_3~output_o $end
$var wire 1 H total_4~output_o $end
$var wire 1 I CLK~input_o $end
$var wire 1 J CLK~inputclkctrl_outclk $end
$var wire 1 K index|sub|9~0_combout $end
$var wire 1 L clear~input_o $end
$var wire 1 M clear~inputclkctrl_outclk $end
$var wire 1 N index|sub|9~q $end
$var wire 1 O index|sub|87~0_combout $end
$var wire 1 P index|sub|87~q $end
$var wire 1 Q index|sub|99~0_combout $end
$var wire 1 R index|sub|99~q $end
$var wire 1 S index|sub|110~0_combout $end
$var wire 1 T index|sub|110~q $end
$var wire 1 U tn14~input_o $end
$var wire 1 V tn6~input_o $end
$var wire 1 W tn10~input_o $end
$var wire 1 X tn2~input_o $end
$var wire 1 Y Mux161|inst|6~0_combout $end
$var wire 1 Z Mux161|inst|6~1_combout $end
$var wire 1 [ tn15~input_o $end
$var wire 1 \ tn11~input_o $end
$var wire 1 ] tn3~input_o $end
$var wire 1 ^ Mux161|inst|6~7_combout $end
$var wire 1 _ tn7~input_o $end
$var wire 1 ` Mux161|inst|6~8_combout $end
$var wire 1 a tn13~input_o $end
$var wire 1 b tn9~input_o $end
$var wire 1 c tn5~input_o $end
$var wire 1 d tn1~input_o $end
$var wire 1 e Mux161|inst|6~2_combout $end
$var wire 1 f Mux161|inst|6~3_combout $end
$var wire 1 g tn12~input_o $end
$var wire 1 h tn8~input_o $end
$var wire 1 i tn0~input_o $end
$var wire 1 j tn4~input_o $end
$var wire 1 k Mux161|inst|6~4_combout $end
$var wire 1 l Mux161|inst|6~5_combout $end
$var wire 1 m Mux161|inst|6~6_combout $end
$var wire 1 n Mux161|inst|6~9_combout $end
$var wire 1 o total1~0_combout $end
$var wire 1 p total1~q $end
$var wire 1 q total2~0_combout $end
$var wire 1 r total2~q $end
$var wire 1 s total3~0_combout $end
$var wire 1 t total3~q $end
$var wire 1 u total4~0_combout $end
$var wire 1 v total4~1_combout $end
$var wire 1 w total4~q $end
$upscope $end
$upscope $end
$enddefinitions $end
#0
$dumpvars
1!
0"
1#
0$
0%
0&
1'
0(
0)
0*
0+
0,
0-
0.
0/
00
01
02
03
04
05
06
07
08
09
0:
0;
1<
x=
1>
1?
1@
0A
0B
0C
0D
0E
0F
0G
0H
0I
0J
1K
1L
1M
0N
0O
0P
0Q
0R
0S
0T
0U
0V
0W
0X
0Y
0Z
0[
0\
0]
0^
0_
0`
0a
0b
0c
0d
0e
0f
0g
0h
1i
1j
1k
1l
1m
1n
1o
0p
0q
0r
0s
0t
0u
0v
0w
$end
#5000
1"
1I
1J
1p
1N
1A
1E
0m
17
13
1q
0o
1O
0K
0n
0q
1o
#10000
0"
0I
0J
#15000
1"
1I
1J
1P
0N
0A
1B
14
03
1K
#20000
0"
0I
0J
#25000
1"
1I
1J
1N
1A
1m
13
1Q
0O
0K
#30000
0"
0I
0J
#35000
1"
1I
1J
1R
0P
0N
0A
0B
1C
1n
15
04
03
1K
1q
0o
#40000
0"
0I
0J
#45000
1"
1I
1J
1r
0p
1N
1A
0E
1F
0m
18
07
13
1o
1O
0K
0n
0o
#50000
0"
0I
0J
#55000
1"
1I
1J
1P
0N
0A
1B
14
03
1K
#60000
0"
0I
0J
#65000
1"
1I
1J
1N
1A
1m
13
1S
0Q
0O
0K
#70000
0"
0I
0J
#75000
1"
1I
1J
1T
0R
0P
0N
0A
0B
0C
1D
0l
0k
1n
16
05
04
03
1K
0m
1o
0n
0o
#80000
0"
0I
0J
#85000
1"
1I
1J
1N
1A
13
1O
0K
#90000
0"
0I
0J
#95000
1"
1I
1J
1P
0N
0A
1B
14
03
1K
#100000
0"
0I
0J
#105000
1"
1I
1J
1N
1A
1m
13
1Q
0O
0K
#110000
0"
0I
0J
#115000
1"
1I
1J
1R
0P
0N
0A
0B
1C
1k
1e
1^
1Y
1n
0m
15
04
03
1K
0n
1o
0o
#120000
0"
0I
0J
#125000
1"
1I
1J
1N
1A
13
1O
0K
#130000
0"
0I
0J
#135000
1"
1I
1J
1P
0N
0A
1B
14
03
1K
#140000
0"
0I
0J
#145000
1"
1I
1J
1N
1A
1m
13
0S
0Q
0O
0K
#150000
0"
0I
0J
#155000
1"
1I
1J
0T
0R
0P
0N
0A
0B
0C
0D
1l
1f
0e
0^
0Y
1`
1Z
1n
0m
06
05
04
03
1K
1m
0f
0`
0Z
0n
1o
1n
0o
1o
#160000
0"
0I
0J
#165000
1"
1I
1J
1p
1N
1A
1E
0m
17
13
1s
0q
0o
1O
0K
0n
0s
1q
1o
#170000
0"
0I
0J
#175000
1"
1I
1J
1P
0N
0A
1B
14
03
1K
#180000
0"
0I
0J
#185000
1"
1I
1J
1N
1A
1m
13
1Q
0O
0K
#190000
0"
0I
0J
#195000
1"
1I
1J
1R
0P
0N
0A
0B
1C
1n
15
04
03
1K
1s
0q
0o
#200000
0"
0I
0J
#205000
1"
1I
1J
1t
0r
0p
1N
1A
0E
0F
1G
0m
19
08
07
13
1o
1O
0K
0n
0o
#210000
0"
0I
0J
#215000
1"
1I
1J
1P
0N
0A
1B
14
03
1K
#220000
0"
0I
0J
#225000
1"
1I
1J
1N
1A
1m
13
1S
0Q
0O
0K
#230000
0"
0I
0J
#235000
1"
1I
1J
1T
0R
0P
0N
0A
0B
0C
1D
0l
0k
1n
16
05
04
03
1K
0m
1o
0n
0o
#240000
0"
0I
0J
#245000
1"
1I
1J
1N
1A
13
1O
0K
#250000
0"
0I
0J
#255000
1"
1I
1J
1P
0N
0A
1B
14
03
1K
#260000
0"
0I
0J
#265000
1"
1I
1J
1N
1A
1m
13
1Q
0O
0K
#270000
0"
0I
0J
#275000
1"
1I
1J
1R
0P
0N
0A
0B
1C
1k
1e
1^
1Y
1n
0m
15
04
03
1K
0n
1o
0o
#280000
0"
0I
0J
#285000
1"
1I
1J
1N
1A
13
1O
0K
#290000
0"
0I
0J
#295000
1"
1I
1J
1P
0N
0A
1B
14
03
1K
#300000
0"
0I
0J
#305000
1"
1I
1J
1N
1A
1m
13
0S
0Q
0O
0K
#310000
0"
0I
0J
#315000
1"
1I
1J
0T
0R
0P
0N
0A
0B
0C
0D
1l
1f
0e
0^
0Y
1`
1Z
1n
0m
06
05
04
03
1K
1m
0f
0`
0Z
0n
1o
1n
0o
1o
#320000
0"
0I
0J
#325000
1"
1I
1J
1p
1N
1A
1E
1u
0m
17
13
1q
0o
1O
0K
0n
0q
1o
#330000
0"
0I
0J
#335000
1"
1I
1J
1P
0N
0A
1B
14
03
1K
#340000
0"
0I
0J
#345000
1"
1I
1J
1N
1A
1m
13
1Q
0O
0K
#350000
0"
0I
0J
#355000
1"
1I
1J
1R
0P
0N
0A
0B
1C
1n
15
04
03
1K
1q
0o
#360000
0"
0I
0J
#365000
1"
1I
1J
1r
0p
1N
1A
0E
1F
0u
0m
18
07
13
1v
1o
1O
0K
0n
0v
0o
#370000
0"
0I
0J
#375000
1"
1I
1J
1P
0N
0A
1B
14
03
1K
#380000
0"
0I
0J
#385000
1"
1I
1J
1N
1A
1m
13
1S
0Q
0O
0K
#390000
0"
0I
0J
#395000
1"
1I
1J
1T
0R
0P
0N
0A
0B
0C
1D
0l
0k
1n
16
05
04
03
1K
0m
1o
0n
0o
#400000
0"
0I
0J
#405000
1"
1I
1J
1N
1A
13
1O
0K
#410000
0"
0I
0J
#415000
1"
1I
1J
1P
0N
0A
1B
14
03
1K
#420000
0"
0I
0J
#425000
1"
1I
1J
1N
1A
1m
13
1Q
0O
0K
#430000
0"
0I
0J
#435000
1"
1I
1J
1R
0P
0N
0A
0B
1C
1k
1e
1^
1Y
1n
0m
15
04
03
1K
0n
1o
0o
#440000
0"
0I
0J
#445000
1"
1I
1J
1N
1A
13
1O
0K
#450000
0"
0I
0J
#455000
1"
1I
1J
1P
0N
0A
1B
14
03
1K
#460000
0"
0I
0J
#465000
1"
1I
1J
1N
1A
1m
13
0S
0Q
0O
0K
#470000
0"
0I
0J
#475000
1"
1I
1J
0T
0R
0P
0N
0A
0B
0C
0D
1l
1f
0e
0^
0Y
1`
1Z
1n
0m
06
05
04
03
1K
1m
0f
0`
0Z
0n
1o
1n
0o
1o
#480000
0"
0I
0J
#485000
1"
1I
1J
1p
1N
1A
1E
1u
0m
17
13
0s
0q
0o
1O
0K
0n
1v
0v
1s
1q
1o
#490000
0"
0I
0J
#495000
1"
1I
1J
1P
0N
0A
1B
14
03
1K
#500000
0"
0I
0J
#505000
1"
1I
1J
1N
1A
1m
13
1Q
0O
0K
#510000
0"
0I
0J
#515000
1"
1I
1J
1R
0P
0N
0A
0B
1C
1n
15
04
03
1K
1v
0s
0q
0o
#520000
0"
0I
0J
#525000
1"
1I
1J
1w
0t
0r
0p
1N
1A
0E
0F
0G
1H
0u
0m
1:
09
08
07
13
1o
1O
0K
0n
0o
#530000
0"
0I
0J
#535000
1"
1I
1J
1P
0N
0A
1B
14
03
1K
#540000
0"
0I
0J
#545000
1"
1I
1J
1N
1A
1m
13
1S
0Q
0O
0K
#550000
0"
0I
0J
#555000
1"
1I
1J
1T
0R
0P
0N
0A
0B
0C
1D
0l
0k
1n
16
05
04
03
1K
0m
1o
0n
0o
#560000
0"
0I
0J
#565000
1"
1I
1J
1N
1A
13
1O
0K
#570000
0"
0I
0J
#575000
1"
1I
1J
1P
0N
0A
1B
14
03
1K
#580000
0"
0I
0J
#585000
1"
1I
1J
1N
1A
1m
13
1Q
0O
0K
#590000
0"
0I
0J
#595000
1"
1I
1J
1R
0P
0N
0A
0B
1C
1k
1e
1^
1Y
1n
0m
15
04
03
1K
0n
1o
0o
#600000
0"
0I
0J
#605000
1"
1I
1J
1N
1A
13
1O
0K
#610000
0"
0I
0J
#615000
1"
1I
1J
1P
0N
0A
1B
14
03
1K
#620000
0"
0I
0J
#625000
1"
1I
1J
1N
1A
1m
13
0S
0Q
0O
0K
#630000
0"
0I
0J
#635000
1"
1I
1J
0T
0R
0P
0N
0A
0B
0C
0D
1l
1f
0e
0^
0Y
1`
1Z
1n
0m
06
05
04
03
1K
1m
0f
0`
0Z
0n
1o
1n
0o
1o
#640000
0"
0I
0J
#645000
1"
1I
1J
1p
1N
1A
1E
0m
17
13
1q
0o
1O
0K
0n
0q
1o
#650000
0"
0I
0J
#655000
1"
1I
1J
1P
0N
0A
1B
14
03
1K
#660000
0"
0I
0J
#665000
1"
1I
1J
1N
1A
1m
13
1Q
0O
0K
#670000
0"
0I
0J
#675000
1"
1I
1J
1R
0P
0N
0A
0B
1C
1n
15
04
03
1K
1q
0o
#680000
0"
0I
0J
#685000
1"
1I
1J
1r
0p
1N
1A
0E
1F
0m
18
07
13
1o
1O
0K
0n
0o
#690000
0"
0I
0J
#695000
1"
1I
1J
1P
0N
0A
1B
14
03
1K
#700000
0"
0I
0J
#705000
1"
1I
1J
1N
1A
1m
13
1S
0Q
0O
0K
#710000
0"
0I
0J
#715000
1"
1I
1J
1T
0R
0P
0N
0A
0B
0C
1D
0l
0k
1n
16
05
04
03
1K
0m
1o
0n
0o
#720000
0"
0I
0J
#725000
1"
1I
1J
1N
1A
13
1O
0K
#730000
0"
0I
0J
#735000
1"
1I
1J
1P
0N
0A
1B
14
03
1K
#740000
0"
0I
0J
#745000
1"
1I
1J
1N
1A
1m
13
1Q
0O
0K
#750000
0"
0I
0J
#755000
1"
1I
1J
1R
0P
0N
0A
0B
1C
1k
1e
1^
1Y
1n
0m
15
04
03
1K
0n
1o
0o
#760000
0"
0I
0J
#765000
1"
1I
1J
1N
1A
13
1O
0K
#770000
0"
0I
0J
#775000
1"
1I
1J
1P
0N
0A
1B
14
03
1K
#780000
0"
0I
0J
#785000
1"
1I
1J
1N
1A
1m
13
0S
0Q
0O
0K
#790000
0"
0I
0J
#795000
1"
1I
1J
0T
0R
0P
0N
0A
0B
0C
0D
1l
1f
0e
0^
0Y
1`
1Z
1n
0m
06
05
04
03
1K
1m
0f
0`
0Z
0n
1o
1n
0o
1o
#800000
0"
0I
0J
#805000
1"
1I
1J
1p
1N
1A
1E
0m
17
13
1s
0q
0o
1O
0K
0n
0s
1q
1o
#810000
0"
0I
0J
#815000
1"
1I
1J
1P
0N
0A
1B
14
03
1K
#820000
0"
0I
0J
#825000
1"
1I
1J
1N
1A
1m
13
1Q
0O
0K
#830000
0"
0I
0J
#835000
1"
1I
1J
1R
0P
0N
0A
0B
1C
1n
15
04
03
1K
1s
0q
0o
#840000
0"
0I
0J
#845000
1"
1I
1J
1t
0r
0p
1N
1A
0E
0F
1G
0m
19
08
07
13
1o
1O
0K
0n
0o
#850000
0"
0I
0J
#855000
1"
1I
1J
1P
0N
0A
1B
14
03
1K
#860000
0"
0I
0J
#865000
1"
1I
1J
1N
1A
1m
13
1S
0Q
0O
0K
#870000
0"
0I
0J
#875000
1"
1I
1J
1T
0R
0P
0N
0A
0B
0C
1D
0l
0k
1n
16
05
04
03
1K
0m
1o
0n
0o
#880000
0"
0I
0J
#885000
1"
1I
1J
1N
1A
13
1O
0K
#890000
0"
0I
0J
#895000
1"
1I
1J
1P
0N
0A
1B
14
03
1K
#900000
0"
0I
0J
#905000
1"
1I
1J
1N
1A
1m
13
1Q
0O
0K
#910000
0"
0I
0J
#915000
1"
1I
1J
1R
0P
0N
0A
0B
1C
1k
1e
1^
1Y
1n
0m
15
04
03
1K
0n
1o
0o
#920000
0"
0I
0J
#925000
1"
1I
1J
1N
1A
13
1O
0K
#930000
0"
0I
0J
#935000
1"
1I
1J
1P
0N
0A
1B
14
03
1K
#940000
0"
0I
0J
#945000
1"
1I
1J
1N
1A
1m
13
0S
0Q
0O
0K
#950000
0"
0I
0J
#955000
1"
1I
1J
0T
0R
0P
0N
0A
0B
0C
0D
1l
1f
0e
0^
0Y
1`
1Z
1n
0m
06
05
04
03
1K
1m
0f
0`
0Z
0n
1o
1n
0o
1o
#960000
0"
0I
0J
#965000
1"
1I
1J
1p
1N
1A
1E
1u
0m
17
13
1q
0o
1O
0K
0n
0q
1o
#970000
0"
0I
0J
#975000
1"
1I
1J
1P
0N
0A
1B
14
03
1K
#980000
0"
0I
0J
#985000
1"
1I
1J
1N
1A
1m
13
1Q
0O
0K
#990000
0"
0I
0J
#995000
1"
1I
1J
1R
0P
0N
0A
0B
1C
1n
15
04
03
1K
1q
0o
