Merge/simulation/qsim/AutomaticRestaurant.msim.vcd
$comment
	File created using the following command:
		vcd file AutomaticRestaurant.msim.vcd -direction
$end
$date
	Thu Dec 13 17:25:47 2018
$end
$version
	ModelSim Version 10.5b
$end
$timescale
	1ps
$end

$scope module AutomaticRestaurant_vlg_vec_tst $end
$var reg 1 ! CLK1 $end
$var reg 1 " color_input0 $end
$var reg 1 # color_input1 $end
$var reg 1 $ color_input2 $end
$var reg 1 % DoorMinusBTN $end
$var reg 1 & DoorPlusBTN $end
$var reg 1 ' DoorResetBTN $end
$var reg 1 ( OpenerMinusBTN $end
$var reg 1 ) OpenerPlusBTN $end
$var reg 1 * OpenerSendBTN $end
$var reg 1 + RandomGame_BTN $end
$var reg 1 , seed1 $end
$var reg 1 - seed2 $end
$var reg 1 . table0 $end
$var reg 1 / table1 $end
$var reg 1 0 table2 $end
$var reg 1 1 table3 $end
$var reg 1 2 take_order $end
$var wire 1 3 Display1a $end
$var wire 1 4 Display1b $end
$var wire 1 5 Display1c $end
$var wire 1 6 Display1d $end
$var wire 1 7 Display1e $end
$var wire 1 8 Display1f $end
$var wire 1 9 Display1g $end
$var wire 1 : Display1h $end
$var wire 1 ; Display1i $end
$var wire 1 < Display1j $end
$var wire 1 = Display1k $end
$var wire 1 > Display1l $end
$var wire 1 ? Display1m $end
$var wire 1 @ Display1n $end
$var wire 1 A Display2a $end
$var wire 1 B Display2b $end
$var wire 1 C Display2c $end
$var wire 1 D Display2d $end
$var wire 1 E Display2e $end
$var wire 1 F Display2f $end
$var wire 1 G Display2g $end
$var wire 1 H Display2h $end
$var wire 1 I Display2i $end
$var wire 1 J Display2j $end
$var wire 1 K Display2k $end
$var wire 1 L Display2l $end
$var wire 1 M Display2m $end
$var wire 1 N Display2n $end
$var wire 1 O DoorDisplayRemain1 $end
$var wire 1 P DoorDisplayRemain2 $end
$var wire 1 Q DoorDisplayRemain3 $end
$var wire 1 R DoorDisplayRemain4 $end
$var wire 1 S NumOfOrder2POS1 $end
$var wire 1 T NumOfOrder2POS2 $end
$var wire 1 U NumOfOrder2POS3 $end
$var wire 1 V NumOfOrder2POS4 $end
$var wire 1 W OpenerDisplay1 $end
$var wire 1 X OpenerDisplay2 $end
$var wire 1 Y OpenerDisplay3 $end
$var wire 1 Z OpenerDisplay4 $end
$var wire 1 [ Random1 $end
$var wire 1 \ Random2 $end
$var wire 1 ] TotalPrice1 $end
$var wire 1 ^ TotalPrice2 $end
$var wire 1 _ TotalPrice3 $end
$var wire 1 ` TotalPrice4 $end
$var wire 1 a TotalPrice5 $end
$var wire 1 b TotalPrice6 $end
$var wire 1 c TotalPrice7 $end
$var wire 1 d TotalPrice8 $end
$var wire 1 e TotalPrice9 $end

$scope module i1 $end
$var wire 1 f gnd $end
$var wire 1 g vcc $end
$var wire 1 h unknown $end
$var tri1 1 i devclrn $end
$var tri1 1 j devpor $end
$var tri1 1 k devoe $end
$var wire 1 l Random1~output_o $end
$var wire 1 m Random2~output_o $end
$var wire 1 n Display1a~output_o $end
$var wire 1 o Display1b~output_o $end
$var wire 1 p Display1c~output_o $end
$var wire 1 q Display1d~output_o $end
$var wire 1 r Display1e~output_o $end
$var wire 1 s Display1f~output_o $end
$var wire 1 t Display1g~output_o $end
$var wire 1 u Display1h~output_o $end
$var wire 1 v Display1i~output_o $end
$var wire 1 w Display1j~output_o $end
$var wire 1 x Display1l~output_o $end
$var wire 1 y Display1k~output_o $end
$var wire 1 z Display1m~output_o $end
$var wire 1 { Display1n~output_o $end
$var wire 1 | Display2a~output_o $end
$var wire 1 } Display2b~output_o $end
$var wire 1 ~ Display2c~output_o $end
$var wire 1 !! Display2d~output_o $end
$var wire 1 "! Display2e~output_o $end
$var wire 1 #! Display2f~output_o $end
$var wire 1 $! Display2g~output_o $end
$var wire 1 %! Display2h~output_o $end
$var wire 1 &! Display2i~output_o $end
$var wire 1 '! Display2j~output_o $end
$var wire 1 (! Display2k~output_o $end
$var wire 1 )! Display2l~output_o $end
$var wire 1 *! Display2m~output_o $end
$var wire 1 +! Display2n~output_o $end
$var wire 1 ,! DoorDisplayRemain1~output_o $end
$var wire 1 -! DoorDisplayRemain2~output_o $end
$var wire 1 .! DoorDisplayRemain3~output_o $end
$var wire 1 /! DoorDisplayRemain4~output_o $end
$var wire 1 0! NumOfOrder2POS1~output_o $end
$var wire 1 1! NumOfOrder2POS2~output_o $end
$var wire 1 2! NumOfOrder2POS3~output_o $end
$var wire 1 3! NumOfOrder2POS4~output_o $end
$var wire 1 4! TotalPrice1~output_o $end
$var wire 1 5! TotalPrice2~output_o $end
$var wire 1 6! TotalPrice3~output_o $end
$var wire 1 7! TotalPrice4~output_o $end
$var wire 1 8! TotalPrice5~output_o $end
$var wire 1 9! TotalPrice6~output_o $end
$var wire 1 :! TotalPrice7~output_o $end
$var wire 1 ;! TotalPrice8~output_o $end
$var wire 1 <! TotalPrice9~output_o $end
$var wire 1 =! OpenerDisplay1~output_o $end
$var wire 1 >! OpenerDisplay2~output_o $end
$var wire 1 ?! OpenerDisplay3~output_o $end
$var wire 1 @! OpenerDisplay4~output_o $end
$var wire 1 A! RandomGame_BTN~input_o $end
$var wire 1 B! RandomGame_BTN~inputclkctrl_outclk $end
$var wire 1 C! CLK1~input_o $end
$var wire 1 D! CLK1~inputclkctrl_outclk $end
$var wire 1 E! seed1~input_o $end
$var wire 1 F! inst123|inst9~combout $end
$var wire 1 G! inst123|inst~q $end
$var wire 1 H! inst123|inst3~feeder_combout $end
$var wire 1 I! inst123|inst3~q $end
$var wire 1 J! inst123|inst4~feeder_combout $end
$var wire 1 K! inst123|inst4~q $end
$var wire 1 L! inst123|inst5~feeder_combout $end
$var wire 1 M! inst123|inst5~q $end
$var wire 1 N! inst123|inst6~feeder_combout $end
$var wire 1 O! inst123|inst6~q $end
$var wire 1 P! inst123|inst20~feeder_combout $end
$var wire 1 Q! inst123|inst20~q $end
$var wire 1 R! seed2~input_o $end
$var wire 1 S! inst123|inst15~combout $end
$var wire 1 T! inst123|inst10~q $end
$var wire 1 U! inst123|inst7~feeder_combout $end
$var wire 1 V! inst123|inst7~q $end
$var wire 1 W! inst123|inst11~feeder_combout $end
$var wire 1 X! inst123|inst11~q $end
$var wire 1 Y! inst123|inst12~feeder_combout $end
$var wire 1 Z! inst123|inst12~q $end
$var wire 1 [! inst123|inst13~feeder_combout $end
$var wire 1 \! inst123|inst13~q $end
$var wire 1 ]! inst123|inst21~feeder_combout $end
$var wire 1 ^! inst123|inst21~q $end
$var wire 1 _! OpenerSendBTN~input_o $end
$var wire 1 `! OpenerSendBTN~inputclkctrl_outclk $end
$var wire 1 a! OpenerPlusBTN~input_o $end
$var wire 1 b! OpenerMinusBTN~input_o $end
$var wire 1 c! OpenerRemoteCtrl|inst123~combout $end
$var wire 1 d! OpenerRemoteCtrl|inst123~clkctrl_outclk $end
$var wire 1 e! color_input0~input_o $end
$var wire 1 f! OpenerRemoteCtrl|inst36~q $end
$var wire 1 g! OpenerRemoteCtrl|inst39~feeder_combout $end
$var wire 1 h! OpenerRemoteCtrl|inst26~combout $end
$var wire 1 i! OpenerRemoteCtrl|inst26~clkctrl_outclk $end
$var wire 1 j! OpenerRemoteCtrl|inst~0_combout $end
$var wire 1 k! OpenerRemoteCtrl|inst~feeder_combout $end
$var wire 1 l! OpenerRemoteCtrl|inst~q $end
$var wire 1 m! OpenerRemoteCtrl|inst32~feeder_combout $end
$var wire 1 n! OpenerRemoteCtrl|inst32~q $end
$var wire 1 o! OpenerRemoteCtrl|inst53~feeder_combout $end
$var wire 1 p! OpenerRemoteCtrl|inst53~q $end
$var wire 1 q! OpenerRemoteCtrl|inst1~0_combout $end
$var wire 1 r! OpenerRemoteCtrl|inst1~feeder_combout $end
$var wire 1 s! OpenerRemoteCtrl|inst1~q $end
$var wire 1 t! OpenerRemoteCtrl|inst12~0_combout $end
$var wire 1 u! OpenerRemoteCtrl|inst12~1_combout $end
$var wire 1 v! OpenerRemoteCtrl|inst2~0_combout $end
$var wire 1 w! OpenerRemoteCtrl|inst2~feeder_combout $end
$var wire 1 x! OpenerRemoteCtrl|inst2~q $end
$var wire 1 y! OpenerRemoteCtrl|inst3~0_combout $end
$var wire 1 z! OpenerRemoteCtrl|inst3~feeder_combout $end
$var wire 1 {! OpenerRemoteCtrl|inst3~q $end
$var wire 1 |! OpenerRemoteCtrl|inst35~feeder_combout $end
$var wire 1 }! OpenerRemoteCtrl|inst35~q $end
$var wire 1 ~! OpenerRemoteCtrl|inst50~feeder_combout $end
$var wire 1 !" OpenerRemoteCtrl|inst50~q $end
$var wire 1 "" OpenerRemoteCtrl|inst33~feeder_combout $end
$var wire 1 #" OpenerRemoteCtrl|inst33~q $end
$var wire 1 $" OpenerRemoteCtrl|inst52~q $end
$var wire 1 %" OpenerRemoteCtrl|inst34~feeder_combout $end
$var wire 1 &" OpenerRemoteCtrl|inst34~q $end
$var wire 1 '" OpenerRemoteCtrl|inst51~feeder_combout $end
$var wire 1 (" OpenerRemoteCtrl|inst51~q $end
$var wire 1 )" OpenerRemoteCtrl|inst22~0_combout $end
$var wire 1 *" OpenerRemoteCtrl|inst39~q $end
$var wire 1 +" table3~input_o $end
$var wire 1 ," OpenerRemoteCtrl|inst49~q $end
$var wire 1 -" OpenerRemoteCtrl|inst45~feeder_combout $end
$var wire 1 ." OpenerRemoteCtrl|inst45~q $end
$var wire 1 /" Order_Register|inst118~q $end
$var wire 1 0" table0~input_o $end
$var wire 1 1" OpenerRemoteCtrl|inst46~feeder_combout $end
$var wire 1 2" OpenerRemoteCtrl|inst46~q $end
$var wire 1 3" OpenerRemoteCtrl|inst42~feeder_combout $end
$var wire 1 4" OpenerRemoteCtrl|inst42~q $end
$var wire 1 5" Order_Register|inst115~feeder_combout $end
$var wire 1 6" Order_Register|inst115~q $end
$var wire 1 7" table2~input_o $end
$var wire 1 8" OpenerRemoteCtrl|inst48~q $end
$var wire 1 9" OpenerRemoteCtrl|inst44~feeder_combout $end
$var wire 1 :" OpenerRemoteCtrl|inst44~q $end
$var wire 1 ;" Order_Register|inst117~feeder_combout $end
$var wire 1 <" Order_Register|inst117~q $end
$var wire 1 =" Order_Register|inst23~0_combout $end
$var wire 1 >" Order_Register|inst23~combout $end
$var wire 1 ?" Order_Register|inst23~clkctrl_outclk $end
$var wire 1 @" table1~input_o $end
$var wire 1 A" OpenerRemoteCtrl|inst47~q $end
$var wire 1 B" OpenerRemoteCtrl|inst43~feeder_combout $end
$var wire 1 C" OpenerRemoteCtrl|inst43~q $end
$var wire 1 D" Order_Register|inst116~feeder_combout $end
$var wire 1 E" Order_Register|inst116~q $end
$var wire 1 F" Order_Register|inst112~feeder_combout $end
$var wire 1 G" Order_Register|inst113~feeder_combout $end
$var wire 1 H" Order_Register|inst113~q $end
$var wire 1 I" Order_Register|inst109~feeder_combout $end
$var wire 1 J" Order_Register|inst108~feeder_combout $end
$var wire 1 K" Order_Register|inst108~q $end
$var wire 1 L" take_order~input_o $end
$var wire 1 M" Order_Register|inst104~q $end
$var wire 1 N" Order_Register|inst105~q $end
$var wire 1 O" Order_Register|inst111~feeder_combout $end
$var wire 1 P" Order_Register|inst111~q $end
$var wire 1 Q" Order_Register|inst107~feeder_combout $end
$var wire 1 R" Order_Register|inst107~q $end
$var wire 1 S" Order_Register|inst103~feeder_combout $end
$var wire 1 T" Order_Register|inst103~q $end
$var wire 1 U" Order_Register|inst20~0_combout $end
$var wire 1 V" Order_Register|inst20~combout $end
$var wire 1 W" Order_Register|inst20~clkctrl_outclk $end
$var wire 1 X" Order_Register|inst106~q $end
$var wire 1 Y" Order_Register|inst256~5_combout $end
$var wire 1 Z" Order_Register|inst86~feeder_combout $end
$var wire 1 [" Order_Register|inst86~q $end
$var wire 1 \" Order_Register|inst83~feeder_combout $end
$var wire 1 ]" Order_Register|inst83~q $end
$var wire 1 ^" Order_Register|inst84~feeder_combout $end
$var wire 1 _" Order_Register|inst84~q $end
$var wire 1 `" Order_Register|inst11~0_combout $end
$var wire 1 a" Order_Register|inst11~combout $end
$var wire 1 b" Order_Register|inst11~clkctrl_outclk $end
$var wire 1 c" Order_Register|inst85~feeder_combout $end
$var wire 1 d" Order_Register|inst85~q $end
$var wire 1 e" Order_Register|inst81~feeder_combout $end
$var wire 1 f" Order_Register|inst81~q $end
$var wire 1 g" Order_Register|inst79~feeder_combout $end
$var wire 1 h" Order_Register|inst79~q $end
$var wire 1 i" Order_Register|inst8~0_combout $end
$var wire 1 j" Order_Register|inst82~feeder_combout $end
$var wire 1 k" Order_Register|inst82~q $end
$var wire 1 l" Order_Register|inst8~combout $end
$var wire 1 m" Order_Register|inst8~clkctrl_outclk $end
$var wire 1 n" Order_Register|inst80~feeder_combout $end
$var wire 1 o" Order_Register|inst80~q $end
$var wire 1 p" Order_Register|inst76~feeder_combout $end
$var wire 1 q" Order_Register|inst76~q $end
$var wire 1 r" Order_Register|inst77~feeder_combout $end
$var wire 1 s" Order_Register|inst77~q $end
$var wire 1 t" Order_Register|inst75~feeder_combout $end
$var wire 1 u" Order_Register|inst75~q $end
$var wire 1 v" Order_Register|inst6~0_combout $end
$var wire 1 w" Order_Register|inst6~combout $end
$var wire 1 x" Order_Register|inst6~clkctrl_outclk $end
$var wire 1 y" Order_Register|inst78~feeder_combout $end
$var wire 1 z" Order_Register|inst78~q $end
$var wire 1 {" Order_Register|inst74~feeder_combout $end
$var wire 1 |" Order_Register|inst74~q $end
$var wire 1 }" Order_Register|inst73~feeder_combout $end
$var wire 1 ~" Order_Register|inst73~q $end
$var wire 1 !# Order_Register|inst71~feeder_combout $end
$var wire 1 "# Order_Register|inst71~q $end
$var wire 1 ## Order_Register|inst5~0_combout $end
$var wire 1 $# Order_Register|inst5~combout $end
$var wire 1 %# Order_Register|inst5~clkctrl_outclk $end
$var wire 1 &# Order_Register|inst72~feeder_combout $end
$var wire 1 '# Order_Register|inst72~q $end
$var wire 1 (# Order_Register|inst256~4_combout $end
$var wire 1 )# Order_Register|inst256~3_combout $end
$var wire 1 *# Order_Register|inst256~2_combout $end
$var wire 1 +# Order_Register|inst256~6_combout $end
$var wire 1 ,# Order_Register|inst92~feeder_combout $end
$var wire 1 -# Order_Register|inst92~q $end
$var wire 1 .# Order_Register|inst14~0_combout $end
$var wire 1 /# Order_Register|inst88~feeder_combout $end
$var wire 1 0# Order_Register|inst88~q $end
$var wire 1 1# Order_Register|inst256~0_combout $end
$var wire 1 2# Order_Register|inst256~1_combout $end
$var wire 1 3# Order_Register|inst256~7_combout $end
$var wire 1 4# Order_Register|inst109~q $end
$var wire 1 5# Order_Register|inst21~0_combout $end
$var wire 1 6# Order_Register|inst21~combout $end
$var wire 1 7# Order_Register|inst21~clkctrl_outclk $end
$var wire 1 8# Order_Register|inst110~feeder_combout $end
$var wire 1 9# Order_Register|inst110~q $end
$var wire 1 :# color_input2~input_o $end
$var wire 1 ;# OpenerRemoteCtrl|inst38~q $end
$var wire 1 <# OpenerRemoteCtrl|inst41~feeder_combout $end
$var wire 1 =# OpenerRemoteCtrl|inst41~q $end
$var wire 1 ># Order_Register|inst101~feeder_combout $end
$var wire 1 ?# Order_Register|inst101~q $end
$var wire 1 @# Order_Register|inst97~feeder_combout $end
$var wire 1 A# Order_Register|inst97~q $end
$var wire 1 B# Order_Register|inst15~0_combout $end
$var wire 1 C# Order_Register|inst257~0_combout $end
$var wire 1 D# Order_Register|inst257~1_combout $end
$var wire 1 E# Order_Register|inst257~5_combout $end
$var wire 1 F# Order_Register|inst257~3_combout $end
$var wire 1 G# Order_Register|inst257~2_combout $end
$var wire 1 H# Order_Register|inst257~4_combout $end
$var wire 1 I# Order_Register|inst257~6_combout $end
$var wire 1 J# Order_Register|inst257~7_combout $end
$var wire 1 K# Order_Register|inst112~q $end
$var wire 1 L# Order_Register|inst22~0_combout $end
$var wire 1 M# Order_Register|inst22~combout $end
$var wire 1 N# Order_Register|inst22~clkctrl_outclk $end
$var wire 1 O# Order_Register|inst114~feeder_combout $end
$var wire 1 P# Order_Register|inst114~q $end
$var wire 1 Q# Order_Register|inst258~0_combout $end
$var wire 1 R# Order_Register|inst16~0_combout $end
$var wire 1 S# Order_Register|inst258~1_combout $end
$var wire 1 T# Order_Register|inst258~2_combout $end
$var wire 1 U# Order_Register|inst258~4_combout $end
$var wire 1 V# Order_Register|inst258~5_combout $end
$var wire 1 W# Order_Register|inst258~3_combout $end
$var wire 1 X# Order_Register|inst258~6_combout $end
$var wire 1 Y# Order_Register|inst258~7_combout $end
$var wire 1 Z# Order_Register|inst99~q $end
$var wire 1 [# Order_Register|inst16~combout $end
$var wire 1 \# color_input1~input_o $end
$var wire 1 ]# OpenerRemoteCtrl|inst37~q $end
$var wire 1 ^# OpenerRemoteCtrl|inst40~feeder_combout $end
$var wire 1 _# OpenerRemoteCtrl|inst40~q $end
$var wire 1 `# Order_Register|inst244~q $end
$var wire 1 a# Order_Register|inst96~feeder_combout $end
$var wire 1 b# Order_Register|inst96~q $end
$var wire 1 c# Order_Register|inst15~combout $end
$var wire 1 d# Order_Register|inst95~feeder_combout $end
$var wire 1 e# Order_Register|inst95~q $end
$var wire 1 f# Order_Register|inst91~q $end
$var wire 1 g# Order_Register|inst14~combout $end
$var wire 1 h# Order_Register|inst93~feeder_combout $end
$var wire 1 i# Order_Register|inst93~q $end
$var wire 1 j# Order_Register|inst89~q $end
$var wire 1 k# Order_Register|inst12~combout $end
$var wire 1 l# Order_Register|inst87~q $end
$var wire 1 m# id2SegDecoder|inst26~combout $end
$var wire 1 n# id2SegDecoder|inst29~combout $end
$var wire 1 o# inst15~combout $end
$var wire 1 p# id2SegDecoder|inst31~combout $end
$var wire 1 q# id2SegDecoder|inst9~combout $end
$var wire 1 r# inst16~combout $end
$var wire 1 s# id2SegDecoder|inst17~0_combout $end
$var wire 1 t# id2SegDecoder|inst18~combout $end
$var wire 1 u# Order_Register|inst12~0_combout $end
$var wire 1 v# id2SegDecoder|inst22~combout $end
$var wire 1 w# id2SegDecoder|inst24~combout $end
$var wire 1 x# table2SegDecoder|inst5~combout $end
$var wire 1 y# table2SegDecoder|inst8~combout $end
$var wire 1 z# table2SegDecoder|inst39~0_combout $end
$var wire 1 {# table2SegDecoder|inst13~0_combout $end
$var wire 1 |# table2SegDecoder|inst18~0_combout $end
$var wire 1 }# table2SegDecoder|inst27~0_combout $end
$var wire 1 ~# table2SegDecoder|inst30~combout $end
$var wire 1 !$ table2SegDecoder|inst32~0_combout $end
$var wire 1 "$ DoorPlusBTN~input_o $end
$var wire 1 #$ DoorMinusBTN~input_o $end
$var wire 1 $$ Remain_Table|inst26~combout $end
$var wire 1 %$ Remain_Table|inst26~clkctrl_outclk $end
$var wire 1 &$ Remain_Table|toggle0bit~0_combout $end
$var wire 1 '$ DoorResetBTN~input_o $end
$var wire 1 ($ Remain_Table|toggle0bit~q $end
$var wire 1 )$ Remain_Table|toggle1bit~0_combout $end
$var wire 1 *$ Remain_Table|toggle1bit~feeder_combout $end
$var wire 1 +$ Remain_Table|toggle1bit~q $end
$var wire 1 ,$ Remain_Table|inst12~0_combout $end
$var wire 1 -$ Remain_Table|inst12~1_combout $end
$var wire 1 .$ Remain_Table|toggle2bit~0_combout $end
$var wire 1 /$ Remain_Table|toggle2bit~q $end
$var wire 1 0$ Remain_Table|toggle3bit~0_combout $end
$var wire 1 1$ Remain_Table|toggle3bit~q $end
$var wire 1 2$ inst19~combout $end
$var wire 1 3$ inst19~clkctrl_outclk $end
$var wire 1 4$ inst18~combout $end
$var wire 1 5$ DFF_SET|inst72~feeder_combout $end
$var wire 1 6$ DFF_SET|inst72~q $end
$var wire 1 7$ inst17~combout $end
$var wire 1 8$ inst17~clkctrl_outclk $end
$var wire 1 9$ DFF_SET|inst59~feeder_combout $end
$var wire 1 :$ DFF_SET|inst59~q $end
$var wire 1 ;$ inst13~combout $end
$var wire 1 <$ inst13~clkctrl_outclk $end
$var wire 1 =$ DFF_SET|inst60~feeder_combout $end
$var wire 1 >$ DFF_SET|inst60~q $end
$var wire 1 ?$ inst14~combout $end
$var wire 1 @$ inst14~clkctrl_outclk $end
$var wire 1 A$ DFF_SET|inst61~feeder_combout $end
$var wire 1 B$ DFF_SET|inst61~q $end
$var wire 1 C$ DFF_SET|inst58~q $end
$var wire 1 D$ inst15~clkctrl_outclk $end
$var wire 1 E$ DFF_SET|inst65~q $end
$var wire 1 F$ Re_Adder|inst5|27~0_combout $end
$var wire 1 G$ DFF_SET|inst51~q $end
$var wire 1 H$ Re_Adder|inst12|27~0_combout $end
$var wire 1 I$ DFF_SET|inst80~q $end
$var wire 1 J$ Re_Adder|inst5|23~0_combout $end
$var wire 1 K$ DFF_SET|inst71~q $end
$var wire 1 L$ Re_Adder|inst3|43~0_combout $end
$var wire 1 M$ DFF_SET|inst50~feeder_combout $end
$var wire 1 N$ DFF_SET|inst50~q $end
$var wire 1 O$ DFF_SET|inst73~feeder_combout $end
$var wire 1 P$ DFF_SET|inst73~q $end
$var wire 1 Q$ Re_Adder|inst|43~0_combout $end
$var wire 1 R$ Re_Adder|inst5|43~0_combout $end
$var wire 1 S$ inst18~clkctrl_outclk $end
$var wire 1 T$ DFF_SET|inst67~q $end
$var wire 1 U$ Re_Adder|inst9|43~0_combout $end
$var wire 1 V$ Re_Adder|inst9|43~1_combout $end
$var wire 1 W$ Re_Adder|inst3|27~0_combout $end
$var wire 1 X$ Re_Adder|inst9|27~0_combout $end
$var wire 1 Y$ DFF_SET|inst68~q $end
$var wire 1 Z$ Re_Adder|inst12|43~combout $end
$var wire 1 [$ Re_Adder|inst7|27~0_combout $end
$var wire 1 \$ Re_Adder|inst7|43~0_combout $end
$var wire 1 ]$ Re_Adder|inst9|51~0_combout $end
$var wire 1 ^$ DFF_SET|inst64~feeder_combout $end
$var wire 1 _$ DFF_SET|inst64~q $end
$var wire 1 `$ DFF_SET|inst81~feeder_combout $end
$var wire 1 a$ DFF_SET|inst81~q $end
$var wire 1 b$ Re_Adder|inst|2~0_combout $end
$var wire 1 c$ DFF_SET|inst69~feeder_combout $end
$var wire 1 d$ DFF_SET|inst69~q $end
$var wire 1 e$ Re_Adder|inst|44~0_combout $end
$var wire 1 f$ Re_Adder|inst5|1~0_combout $end
$var wire 1 g$ Re_Adder|inst5|51~0_combout $end
$var wire 1 h$ Re_Adder|inst3|27~1_combout $end
$var wire 1 i$ Re_Adder|inst3|51~0_combout $end
$var wire 1 j$ Re_Adder|inst5|44~0_combout $end
$var wire 1 k$ DFF_SET|inst79~feeder_combout $end
$var wire 1 l$ DFF_SET|inst79~q $end
$var wire 1 m$ Re_Adder|inst7|51~0_combout $end
$var wire 1 n$ Re_Adder|inst7|44~0_combout $end
$var wire 1 o$ Re_Adder|inst12|51~0_combout $end
$var wire 1 p$ DFF_SET|inst52~feeder_combout $end
$var wire 1 q$ DFF_SET|inst52~q $end
$var wire 1 r$ Re_Adder|inst12|44~combout $end
$var wire 1 s$ DFF_SET|inst76~feeder_combout $end
$var wire 1 t$ DFF_SET|inst76~q $end
$var wire 1 u$ Re_Adder|inst9|45~0_combout $end
$var wire 1 v$ Re_Adder|inst12|2~0_combout $end
$var wire 1 w$ DFF_SET|inst74~q $end
$var wire 1 x$ Re_Adder|inst5|2~0_combout $end
$var wire 1 y$ DFF_SET|inst75~q $end
$var wire 1 z$ Re_Adder|inst7|45~0_combout $end
$var wire 1 {$ DFF_SET|inst63~feeder_combout $end
$var wire 1 |$ DFF_SET|inst63~q $end
$var wire 1 }$ DFF_SET|inst77~q $end
$var wire 1 ~$ Re_Adder|inst3|1~0_combout $end
$var wire 1 !% Re_Adder|inst|45~0_combout $end
$var wire 1 "% DFF_SET|inst66~q $end
$var wire 1 #% Re_Adder|inst|45~1_combout $end
$var wire 1 $% Re_Adder|inst3|45~0_combout $end
$var wire 1 %% Re_Adder|inst7|45~1_combout $end
$var wire 1 &% Re_Adder|inst12|45~combout $end
$var wire 1 '% Re_Adder|inst12|2~1_combout $end
$var wire 1 (% Re_Adder|inst9|2~0_combout $end
$var wire 1 )% Re_Adder|inst9|2~1_combout $end
$var wire 1 *% Re_Adder|inst3|2~0_combout $end
$var wire 1 +% Re_Adder|inst5|2~1_combout $end
$var wire 1 ,% Re_Adder|inst5|45~0_combout $end
$var wire 1 -% Re_Adder|inst7|2~0_combout $end
$var wire 1 .% Re_Adder|inst7|2~1_combout $end
$var wire 1 /% Re_Adder|inst7|2~2_combout $end
$var wire 1 0% Re_Adder|inst|2~1_combout $end
$var wire 1 1% Re_Adder|inst8|42~combout $end
$var wire 1 2% Re_Adder|inst13|42~combout $end
$var wire 1 3% Re_Adder|inst8|43~combout $end
$var wire 1 4% Re_Adder|inst13|43~combout $end
$var wire 1 5% Re_Adder|inst8|44~0_combout $end
$var wire 1 6% Re_Adder|inst10|18~combout $end
$var wire 1 7% Re_Adder|inst13|54~0_combout $end
$var wire 1 8% Re_Adder|inst13|44~combout $end
$upscope $end
$upscope $end
$enddefinitions $end
#0
$dumpvars
0!
0"
0#
0$
0%
0&
0'
0(
0)
0*
0+
0,
0-
0.
0/
00
01
02
x3
x4
x5
x6
x7
x8
19
x:
x;
x<
x=
x>
x?
x@
xA
1B
1C
xD
xE
xF
0G
xH
xI
xJ
xK
xL
xM
xN
xO
xP
xQ
xR
xS
xT
xU
xV
xW
xX
xY
xZ
x[
x\
x]
x^
x_
x`
xa
xb
xc
1d
1e
0f
1g
xh
1i
1j
1k
xl
xm
xn
xo
xp
xq
xr
xs
1t
xu
xv
xw
xx
xy
xz
x{
x|
1}
1~
x!!
x"!
x#!
0$!
x%!
x&!
x'!
x(!
x)!
x*!
x+!
x,!
x-!
x.!
x/!
x0!
x1!
x2!
x3!
x4!
x5!
x6!
x7!
x8!
x9!
x:!
1;!
1<!
x=!
x>!
x?!
x@!
0A!
xB!
0C!
xD!
0E!
xF!
0G!
xH!
0I!
xJ!
0K!
xL!
0M!
xN!
0O!
xP!
0Q!
0R!
xS!
0T!
xU!
0V!
xW!
0X!
xY!
0Z!
x[!
0\!
x]!
0^!
0_!
x`!
0a!
0b!
xc!
xd!
0e!
0f!
xg!
xh!
xi!
xj!
xk!
0l!
xm!
0n!
xo!
0p!
xq!
xr!
0s!
xt!
xu!
xv!
xw!
0x!
xy!
xz!
0{!
x|!
0}!
x~!
0!"
x""
0#"
0$"
x%"
0&"
x'"
0("
x)"
0*"
0+"
0,"
x-"
0."
0/"
00"
x1"
02"
x3"
04"
x5"
06"
07"
08"
x9"
0:"
x;"
0<"
x="
x>"
x?"
0@"
0A"
xB"
0C"
xD"
0E"
xF"
xG"
0H"
xI"
xJ"
0K"
0L"
0M"
0N"
xO"
0P"
xQ"
0R"
xS"
0T"
xU"
xV"
xW"
0X"
xY"
xZ"
0["
x\"
0]"
x^"
0_"
x`"
xa"
xb"
xc"
0d"
xe"
0f"
xg"
0h"
xi"
xj"
0k"
xl"
xm"
xn"
0o"
xp"
0q"
xr"
0s"
xt"
0u"
xv"
xw"
xx"
xy"
0z"
x{"
0|"
x}"
0~"
x!#
0"#
x##
x$#
x%#
x&#
0'#
x(#
x)#
x*#
x+#
x,#
0-#
x.#
x/#
00#
x1#
x2#
x3#
04#
x5#
x6#
x7#
x8#
09#
0:#
0;#
x<#
0=#
x>#
0?#
x@#
0A#
xB#
xC#
xD#
xE#
xF#
xG#
xH#
xI#
xJ#
0K#
xL#
xM#
xN#
xO#
0P#
xQ#
xR#
xS#
xT#
xU#
xV#
xW#
xX#
xY#
0Z#
x[#
0\#
0]#
x^#
0_#
0`#
xa#
0b#
xc#
xd#
0e#
0f#
xg#
xh#
0i#
0j#
xk#
0l#
xm#
xn#
xo#
xp#
xq#
xr#
xs#
xt#
xu#
xv#
xw#
xx#
xy#
xz#
x{#
x|#
x}#
x~#
x!$
0"$
0#$
x$$
x%$
1&$
0'$
0($
x)$
x*$
0+$
x,$
x-$
x.$
0/$
x0$
01$
x2$
x3$
x4$
x5$
06$
x7$
x8$
x9$
0:$
x;$
x<$
x=$
0>$
x?$
x@$
xA$
0B$
0C$
xD$
0E$
xF$
0G$
xH$
0I$
xJ$
0K$
xL$
xM$
0N$
xO$
0P$
xQ$
xR$
xS$
0T$
xU$
xV$
xW$
xX$
0Y$
xZ$
x[$
x\$
x]$
x^$
0_$
x`$
0a$
xb$
xc$
0d$
xe$
xf$
xg$
xh$
xi$
xj$
xk$
0l$
xm$
xn$
xo$
xp$
0q$
xr$
xs$
0t$
xu$
xv$
0w$
xx$
0y$
xz$
x{$
0|$
0}$
x~$
x!%
0"%
x#%
x$%
x%%
x&%
x'%
x(%
x)%
x*%
x+%
x,%
x-%
x.%
x/%
10%
x1%
x2%
x3%
x4%
x5%
x6%
x7%
x8%
$end
#367
0B!
0D!
0`!
#403
0g!
0<#
#404
0L!
0N!
0U!
0[!
03"
0B"
0^#
#405
0Y!
09"
#406
0H!
#407
0-"
#413
0J!
#415
0W!
#432
0t"
#433
0o$
#436
0@#
#440
0m$
#442
0-$
#444
0|!
0a#
#445
0p"
#446
0%"
#447
0s$
#452
0d#
#454
0r"
#461
0u!
#463
0""
#464
0r#
#467
02$
#472
04$
#473
0m!
#488
1j!
#549
0P!
#558
0/#
#568
0o!
0'"
#570
0y"
#577
1*#
#587
1B#
#595
0o#
#680
0)"
#698
1i"
#700
0~!
#708
1="
#709
0!%
#710
0]!
#715
1T#
1`"
#717
1U"
1R#
#720
15#
#721
1b$
#722
0^$
#723
1L#
#724
1G#
#756
0I"
#758
0h#
#759
0p$
#761
0J"
#764
0{$
#772
0,#
#783
08#
#786
1.%
#791
0;$
#804
1W#
#806
0e"
#818
0g"
#825
11#
#834
1F#
#838
1Q#
#859
1.#
#863
0J$
#882
0Q"
#892
0c$
