Merge/simulation/qsim/AutomaticRestaurant.msim.vcd
$comment
	File created using the following command:
		vcd file AutomaticRestaurant.msim.vcd -direction
$end
$date
	Wed Dec 12 20:28:30 2018
$end
$version
	ModelSim Version 10.5b
$end
$timescale
	1ps
$end

$scope module AutomaticRestaurant_vlg_vec_tst $end
$var reg 1 ! CLK1 $end
$var reg 1 " color_input0 $end
$var reg 1 # color_input1 $end
$var reg 1 $ color_input2 $end
$var reg 1 % DoorMinusBTN $end
$var reg 1 & DoorPlusBTN $end
$var reg 1 ' DoorResetBTN $end
$var reg 1 ( OpenerMinusBTN $end
$var reg 1 ) OpenerPlusBTN $end
$var reg 1 * OpenerSendBTN $end
$var reg 1 + RandomGame_BTN $end
$var reg 1 , seed1 $end
$var reg 1 - seed2 $end
$var reg 1 . table0 $end
$var reg 1 / table1 $end
$var reg 1 0 table2 $end
$var reg 1 1 table3 $end
$var reg 1 2 take_order $end
$var wire 1 3 Display1a $end
$var wire 1 4 Display1b $end
$var wire 1 5 Display1c $end
$var wire 1 6 Display1d $end
$var wire 1 7 Display1e $end
$var wire 1 8 Display1f $end
$var wire 1 9 Display1g $end
$var wire 1 : Display1h $end
$var wire 1 ; Display1i $end
$var wire 1 < Display1j $end
$var wire 1 = Display1k $end
$var wire 1 > Display1l $end
$var wire 1 ? Display1m $end
$var wire 1 @ Display1n $end
$var wire 1 A Display2a $end
$var wire 1 B Display2b $end
$var wire 1 C Display2c $end
$var wire 1 D Display2d $end
$var wire 1 E Display2e $end
$var wire 1 F Display2f $end
$var wire 1 G Display2g $end
$var wire 1 H Display2h $end
$var wire 1 I Display2i $end
$var wire 1 J Display2j $end
$var wire 1 K Display2k $end
$var wire 1 L Display2l $end
$var wire 1 M Display2m $end
$var wire 1 N Display2n $end
$var wire 1 O DoorDisplayRemain1 $end
$var wire 1 P DoorDisplayRemain2 $end
$var wire 1 Q DoorDisplayRemain3 $end
$var wire 1 R DoorDisplayRemain4 $end
$var wire 1 S OpenerDisplay1 $end
$var wire 1 T OpenerDisplay2 $end
$var wire 1 U OpenerDisplay3 $end
$var wire 1 V OpenerDisplay4 $end
$var wire 1 W Random1 $end
$var wire 1 X Random2 $end

$scope module i1 $end
$var wire 1 Y gnd $end
$var wire 1 Z vcc $end
$var wire 1 [ unknown $end
$var tri1 1 \ devclrn $end
$var tri1 1 ] devpor $end
$var tri1 1 ^ devoe $end
$var wire 1 _ Random1~output_o $end
$var wire 1 ` Random2~output_o $end
$var wire 1 a Display1a~output_o $end
$var wire 1 b Display1b~output_o $end
$var wire 1 c Display1c~output_o $end
$var wire 1 d Display1d~output_o $end
$var wire 1 e Display1e~output_o $end
$var wire 1 f Display1f~output_o $end
$var wire 1 g Display1g~output_o $end
$var wire 1 h Display1h~output_o $end
$var wire 1 i Display1i~output_o $end
$var wire 1 j Display1j~output_o $end
$var wire 1 k Display1l~output_o $end
$var wire 1 l Display1k~output_o $end
$var wire 1 m Display1m~output_o $end
$var wire 1 n Display1n~output_o $end
$var wire 1 o Display2a~output_o $end
$var wire 1 p Display2b~output_o $end
$var wire 1 q Display2c~output_o $end
$var wire 1 r Display2d~output_o $end
$var wire 1 s Display2e~output_o $end
$var wire 1 t Display2f~output_o $end
$var wire 1 u Display2g~output_o $end
$var wire 1 v Display2h~output_o $end
$var wire 1 w Display2i~output_o $end
$var wire 1 x Display2j~output_o $end
$var wire 1 y Display2k~output_o $end
$var wire 1 z Display2l~output_o $end
$var wire 1 { Display2m~output_o $end
$var wire 1 | Display2n~output_o $end
$var wire 1 } OpenerDisplay1~output_o $end
$var wire 1 ~ OpenerDisplay2~output_o $end
$var wire 1 !! OpenerDisplay3~output_o $end
$var wire 1 "! OpenerDisplay4~output_o $end
$var wire 1 #! DoorDisplayRemain1~output_o $end
$var wire 1 $! DoorDisplayRemain2~output_o $end
$var wire 1 %! DoorDisplayRemain3~output_o $end
$var wire 1 &! DoorDisplayRemain4~output_o $end
$var wire 1 '! RandomGame_BTN~input_o $end
$var wire 1 (! RandomGame_BTN~inputclkctrl_outclk $end
$var wire 1 )! CLK1~input_o $end
$var wire 1 *! CLK1~inputclkctrl_outclk $end
$var wire 1 +! seed1~input_o $end
$var wire 1 ,! inst|inst9~combout $end
$var wire 1 -! inst|inst~q $end
$var wire 1 .! inst|inst3~feeder_combout $end
$var wire 1 /! inst|inst3~q $end
$var wire 1 0! inst|inst4~feeder_combout $end
$var wire 1 1! inst|inst4~q $end
$var wire 1 2! inst|inst5~feeder_combout $end
$var wire 1 3! inst|inst5~q $end
$var wire 1 4! inst|inst6~feeder_combout $end
$var wire 1 5! inst|inst6~q $end
$var wire 1 6! inst|inst20~feeder_combout $end
$var wire 1 7! inst|inst20~q $end
$var wire 1 8! seed2~input_o $end
$var wire 1 9! inst|inst15~combout $end
$var wire 1 :! inst|inst10~q $end
$var wire 1 ;! inst|inst7~feeder_combout $end
$var wire 1 <! inst|inst7~q $end
$var wire 1 =! inst|inst11~feeder_combout $end
$var wire 1 >! inst|inst11~q $end
$var wire 1 ?! inst|inst12~feeder_combout $end
$var wire 1 @! inst|inst12~q $end
$var wire 1 A! inst|inst13~feeder_combout $end
$var wire 1 B! inst|inst13~q $end
$var wire 1 C! inst|inst21~feeder_combout $end
$var wire 1 D! inst|inst21~q $end
$var wire 1 E! OpenerSendBTN~input_o $end
$var wire 1 F! OpenerSendBTN~inputclkctrl_outclk $end
$var wire 1 G! OpenerPlusBTN~input_o $end
$var wire 1 H! OpenerMinusBTN~input_o $end
$var wire 1 I! Opener_RemoteControl|inst123~combout $end
$var wire 1 J! Opener_RemoteControl|inst123~clkctrl_outclk $end
$var wire 1 K! color_input0~input_o $end
$var wire 1 L! Opener_RemoteControl|inst36~q $end
$var wire 1 M! Opener_RemoteControl|inst39~feeder_combout $end
$var wire 1 N! take_order~input_o $end
$var wire 1 O! take_order~inputclkctrl_outclk $end
$var wire 1 P! Opener_RemoteControl|inst39~q $end
$var wire 1 Q! Order_Register|inst99~feeder_combout $end
$var wire 1 R! table3~input_o $end
$var wire 1 S! Opener_RemoteControl|inst49~feeder_combout $end
$var wire 1 T! Opener_RemoteControl|inst49~q $end
$var wire 1 U! Opener_RemoteControl|inst45~feeder_combout $end
$var wire 1 V! Opener_RemoteControl|inst45~q $end
$var wire 1 W! Order_Register|inst118~feeder_combout $end
$var wire 1 X! Order_Register|inst118~q $end
$var wire 1 Y! table1~input_o $end
$var wire 1 Z! Opener_RemoteControl|inst47~feeder_combout $end
$var wire 1 [! Opener_RemoteControl|inst47~q $end
$var wire 1 \! Opener_RemoteControl|inst43~feeder_combout $end
$var wire 1 ]! Opener_RemoteControl|inst43~q $end
$var wire 1 ^! Order_Register|inst116~feeder_combout $end
$var wire 1 _! Order_Register|inst116~q $end
$var wire 1 `! table2~input_o $end
$var wire 1 a! Opener_RemoteControl|inst48~feeder_combout $end
$var wire 1 b! Opener_RemoteControl|inst48~q $end
$var wire 1 c! Opener_RemoteControl|inst44~feeder_combout $end
$var wire 1 d! Opener_RemoteControl|inst44~q $end
$var wire 1 e! Order_Register|inst117~feeder_combout $end
$var wire 1 f! Order_Register|inst117~q $end
$var wire 1 g! Order_Register|inst23~0_combout $end
$var wire 1 h! Order_Register|inst23~combout $end
$var wire 1 i! Order_Register|inst23~clkctrl_outclk $end
$var wire 1 j! table0~input_o $end
$var wire 1 k! Opener_RemoteControl|inst46~feeder_combout $end
$var wire 1 l! Opener_RemoteControl|inst46~q $end
$var wire 1 m! Opener_RemoteControl|inst42~feeder_combout $end
$var wire 1 n! Opener_RemoteControl|inst42~q $end
$var wire 1 o! Order_Register|inst115~q $end
$var wire 1 p! Order_Register|inst111~feeder_combout $end
$var wire 1 q! Order_Register|inst107~feeder_combout $end
$var wire 1 r! Opener_RemoteControl|inst26~combout $end
$var wire 1 s! Opener_RemoteControl|inst26~clkctrl_outclk $end
$var wire 1 t! Opener_RemoteControl|inst~0_combout $end
$var wire 1 u! Opener_RemoteControl|inst~feeder_combout $end
$var wire 1 v! Opener_RemoteControl|inst~q $end
$var wire 1 w! Opener_RemoteControl|inst1~0_combout $end
$var wire 1 x! Opener_RemoteControl|inst1~feeder_combout $end
$var wire 1 y! Opener_RemoteControl|inst1~q $end
$var wire 1 z! Opener_RemoteControl|inst12~0_combout $end
$var wire 1 {! Opener_RemoteControl|inst12~1_combout $end
$var wire 1 |! Opener_RemoteControl|inst2~0_combout $end
$var wire 1 }! Opener_RemoteControl|inst2~feeder_combout $end
$var wire 1 ~! Opener_RemoteControl|inst2~q $end
$var wire 1 !" Opener_RemoteControl|inst34~feeder_combout $end
$var wire 1 "" Opener_RemoteControl|inst34~q $end
$var wire 1 #" Order_Register|inst85~q $end
$var wire 1 $" Opener_RemoteControl|inst32~feeder_combout $end
$var wire 1 %" Opener_RemoteControl|inst32~q $end
$var wire 1 &" Order_Register|inst83~q $end
$var wire 1 '" Opener_RemoteControl|inst33~feeder_combout $end
$var wire 1 (" Opener_RemoteControl|inst33~q $end
$var wire 1 )" Order_Register|inst84~feeder_combout $end
$var wire 1 *" Order_Register|inst84~q $end
$var wire 1 +" Order_Register|inst11~0_combout $end
$var wire 1 ," Order_Register|inst11~combout $end
$var wire 1 -" Order_Register|inst11~clkctrl_outclk $end
$var wire 1 ." Opener_RemoteControl|inst3~0_combout $end
$var wire 1 /" Opener_RemoteControl|inst3~feeder_combout $end
$var wire 1 0" Opener_RemoteControl|inst3~q $end
$var wire 1 1" Opener_RemoteControl|inst35~feeder_combout $end
$var wire 1 2" Opener_RemoteControl|inst35~q $end
$var wire 1 3" Order_Register|inst86~feeder_combout $end
$var wire 1 4" Order_Register|inst86~q $end
$var wire 1 5" Order_Register|inst82~feeder_combout $end
$var wire 1 6" Order_Register|inst82~q $end
$var wire 1 7" Order_Register|inst79~q $end
$var wire 1 8" Order_Register|inst81~feeder_combout $end
$var wire 1 9" Order_Register|inst81~q $end
$var wire 1 :" Order_Register|inst8~0_combout $end
$var wire 1 ;" Order_Register|inst8~combout $end
$var wire 1 <" Order_Register|inst8~clkctrl_outclk $end
$var wire 1 =" Order_Register|inst80~q $end
$var wire 1 >" Order_Register|inst76~feeder_combout $end
$var wire 1 ?" Order_Register|inst76~q $end
$var wire 1 @" Order_Register|inst78~feeder_combout $end
$var wire 1 A" Order_Register|inst78~q $end
$var wire 1 B" Order_Register|inst77~feeder_combout $end
$var wire 1 C" Order_Register|inst77~q $end
$var wire 1 D" Order_Register|inst6~0_combout $end
$var wire 1 E" Order_Register|inst6~combout $end
$var wire 1 F" Order_Register|inst6~clkctrl_outclk $end
$var wire 1 G" Order_Register|inst75~feeder_combout $end
$var wire 1 H" Order_Register|inst75~q $end
$var wire 1 I" Order_Register|inst72~q $end
$var wire 1 J" Order_Register|inst74~q $end
$var wire 1 K" Order_Register|inst73~q $end
$var wire 1 L" Order_Register|inst5~0_combout $end
$var wire 1 M" Order_Register|inst5~combout $end
$var wire 1 N" Order_Register|inst5~clkctrl_outclk $end
$var wire 1 O" Order_Register|inst71~q $end
$var wire 1 P" Order_Register|inst256~3_combout $end
$var wire 1 Q" Order_Register|inst103~q $end
$var wire 1 R" Order_Register|inst113~feeder_combout $end
$var wire 1 S" Order_Register|inst113~q $end
$var wire 1 T" Order_Register|inst109~feeder_combout $end
$var wire 1 U" Order_Register|inst109~q $end
$var wire 1 V" Order_Register|inst105~q $end
$var wire 1 W" Order_Register|inst106~q $end
$var wire 1 X" Order_Register|inst20~0_combout $end
$var wire 1 Y" Order_Register|inst20~combout $end
$var wire 1 Z" Order_Register|inst20~clkctrl_outclk $end
$var wire 1 [" Order_Register|inst112~feeder_combout $end
$var wire 1 \" Order_Register|inst112~q $end
$var wire 1 ]" Order_Register|inst108~feeder_combout $end
$var wire 1 ^" Order_Register|inst108~q $end
$var wire 1 _" Order_Register|inst104~q $end
$var wire 1 `" Order_Register|inst256~2_combout $end
$var wire 1 a" Order_Register|inst256~4_combout $end
$var wire 1 b" Order_Register|inst256~5_combout $end
$var wire 1 c" Order_Register|inst256~6_combout $end
$var wire 1 d" Order_Register|inst88~feeder_combout $end
$var wire 1 e" Order_Register|inst88~q $end
$var wire 1 f" Order_Register|inst93~feeder_combout $end
$var wire 1 g" Order_Register|inst93~q $end
$var wire 1 h" Order_Register|inst256~0_combout $end
$var wire 1 i" Order_Register|inst14~0_combout $end
$var wire 1 j" Order_Register|inst256~1_combout $end
$var wire 1 k" Order_Register|inst256~7_combout $end
$var wire 1 l" Order_Register|inst107~q $end
$var wire 1 m" Order_Register|inst21~0_combout $end
$var wire 1 n" Order_Register|inst21~combout $end
$var wire 1 o" Order_Register|inst21~clkctrl_outclk $end
$var wire 1 p" Order_Register|inst110~feeder_combout $end
$var wire 1 q" Order_Register|inst110~q $end
$var wire 1 r" Order_Register|inst257~3_combout $end
$var wire 1 s" Order_Register|inst257~2_combout $end
$var wire 1 t" Order_Register|inst257~4_combout $end
$var wire 1 u" Order_Register|inst95~feeder_combout $end
$var wire 1 v" Order_Register|inst95~q $end
$var wire 1 w" Order_Register|inst257~5_combout $end
$var wire 1 x" Order_Register|inst257~6_combout $end
$var wire 1 y" Order_Register|inst15~0_combout $end
$var wire 1 z" Order_Register|inst257~0_combout $end
$var wire 1 {" Order_Register|inst257~1_combout $end
$var wire 1 |" Order_Register|inst257~7_combout $end
$var wire 1 }" Order_Register|inst111~q $end
$var wire 1 ~" Order_Register|inst22~0_combout $end
$var wire 1 !# Order_Register|inst22~combout $end
$var wire 1 "# Order_Register|inst22~clkctrl_outclk $end
$var wire 1 ## Order_Register|inst114~feeder_combout $end
$var wire 1 $# Order_Register|inst114~q $end
$var wire 1 %# color_input1~input_o $end
$var wire 1 &# Opener_RemoteControl|inst37~q $end
$var wire 1 '# Opener_RemoteControl|inst40~feeder_combout $end
$var wire 1 (# Opener_RemoteControl|inst40~q $end
$var wire 1 )# Order_Register|inst244~feeder_combout $end
$var wire 1 *# Order_Register|inst244~q $end
$var wire 1 +# Order_Register|inst258~0_combout $end
$var wire 1 ,# Order_Register|inst16~0_combout $end
$var wire 1 -# Order_Register|inst258~1_combout $end
$var wire 1 .# Order_Register|inst258~4_combout $end
$var wire 1 /# Order_Register|inst258~3_combout $end
$var wire 1 0# Order_Register|inst258~2_combout $end
$var wire 1 1# Order_Register|inst258~5_combout $end
$var wire 1 2# Order_Register|inst258~6_combout $end
$var wire 1 3# Order_Register|inst258~7_combout $end
$var wire 1 4# Order_Register|inst99~q $end
$var wire 1 5# Order_Register|inst16~combout $end
$var wire 1 6# Order_Register|inst16~clkctrl_outclk $end
$var wire 1 7# color_input2~input_o $end
$var wire 1 8# Opener_RemoteControl|inst38~feeder_combout $end
$var wire 1 9# Opener_RemoteControl|inst38~q $end
$var wire 1 :# Opener_RemoteControl|inst41~feeder_combout $end
$var wire 1 ;# Opener_RemoteControl|inst41~q $end
$var wire 1 <# Order_Register|inst101~feeder_combout $end
$var wire 1 =# Order_Register|inst101~q $end
$var wire 1 ># Order_Register|inst97~feeder_combout $end
$var wire 1 ?# Order_Register|inst97~q $end
$var wire 1 @# Order_Register|inst15~combout $end
$var wire 1 A# Order_Register|inst15~clkctrl_outclk $end
$var wire 1 B# Order_Register|inst96~feeder_combout $end
$var wire 1 C# Order_Register|inst96~q $end
$var wire 1 D# Order_Register|inst92~feeder_combout $end
$var wire 1 E# Order_Register|inst92~q $end
$var wire 1 F# Order_Register|inst14~combout $end
$var wire 1 G# Order_Register|inst14~clkctrl_outclk $end
$var wire 1 H# Order_Register|inst91~feeder_combout $end
$var wire 1 I# Order_Register|inst91~q $end
$var wire 1 J# Order_Register|inst87~feeder_combout $end
$var wire 1 K# Order_Register|inst87~q $end
$var wire 1 L# Order_Register|inst12~combout $end
$var wire 1 M# Order_Register|inst12~clkctrl_outclk $end
$var wire 1 N# Order_Register|inst89~q $end
$var wire 1 O# id2SegDecoder|inst26~combout $end
$var wire 1 P# id2SegDecoder|inst29~combout $end
$var wire 1 Q# id2SegDecoder|inst28~combout $end
$var wire 1 R# id2SegDecoder|inst31~combout $end
$var wire 1 S# id2SegDecoder|inst13~combout $end
$var wire 1 T# id2SegDecoder|inst21~combout $end
$var wire 1 U# id2SegDecoder|inst17~0_combout $end
$var wire 1 V# id2SegDecoder|inst18~combout $end
$var wire 1 W# Order_Register|inst12~0_combout $end
$var wire 1 X# id2SegDecoder|inst22~combout $end
$var wire 1 Y# id2SegDecoder|inst24~combout $end
$var wire 1 Z# table2SegDecoder|inst5~combout $end
$var wire 1 [# table2SegDecoder|inst8~combout $end
$var wire 1 \# table2SegDecoder|inst39~0_combout $end
$var wire 1 ]# table2SegDecoder|inst13~0_combout $end
$var wire 1 ^# table2SegDecoder|inst18~0_combout $end
$var wire 1 _# table2SegDecoder|inst27~0_combout $end
$var wire 1 `# table2SegDecoder|inst30~combout $end
$var wire 1 a# table2SegDecoder|inst32~0_combout $end
$var wire 1 b# DoorPlusBTN~input_o $end
$var wire 1 c# DoorMinusBTN~input_o $end
$var wire 1 d# Remain_Table|inst26~combout $end
$var wire 1 e# Remain_Table|inst26~clkctrl_outclk $end
$var wire 1 f# Remain_Table|toggle0bit~0_combout $end
$var wire 1 g# DoorResetBTN~input_o $end
$var wire 1 h# DoorResetBTN~inputclkctrl_outclk $end
$var wire 1 i# Remain_Table|toggle0bit~q $end
$var wire 1 j# Remain_Table|toggle1bit~0_combout $end
$var wire 1 k# Remain_Table|toggle1bit~feeder_combout $end
$var wire 1 l# Remain_Table|toggle1bit~q $end
$var wire 1 m# Remain_Table|inst12~1_combout $end
$var wire 1 n# Remain_Table|inst12~0_combout $end
$var wire 1 o# Remain_Table|toggle2bit~0_combout $end
$var wire 1 p# Remain_Table|toggle2bit~q $end
$var wire 1 q# Remain_Table|toggle3bit~0_combout $end
$var wire 1 r# Remain_Table|toggle3bit~q $end
$upscope $end
$upscope $end
$enddefinitions $end
#0
$dumpvars
0!
0"
0#
0$
0%
1&
0'
0(
0)
0*
0+
0,
0-
0.
0/
00
01
02
03
04
15
16
07
08
19
0:
1;
1<
1=
0>
0?
1@
1A
1B
1C
1D
1E
1F
0G
1H
1I
0J
1K
1L
0M
0N
1O
1P
1Q
1R
0S
0T
0U
0V
0W
0X
0Y
1Z
x[
1\
1]
1^
0_
0`
0a
0b
1c
1d
0e
0f
1g
0h
1i
1j
0k
1l
0m
1n
1o
1p
1q
1r
1s
1t
0u
1v
1w
0x
1y
1z
0{
0|
0}
0~
0!!
0"!
1#!
1$!
1%!
1&!
0'!
0(!
0)!
0*!
0+!
0,!
0-!
0.!
0/!
00!
01!
02!
03!
04!
05!
06!
07!
08!
09!
0:!
0;!
0<!
0=!
0>!
0?!
0@!
0A!
0B!
0C!
0D!
0E!
0F!
0G!
0H!
0I!
0J!
0K!
0L!
0M!
0N!
0O!
0P!
0Q!
0R!
0S!
0T!
0U!
0V!
0W!
0X!
0Y!
0Z!
0[!
0\!
0]!
0^!
0_!
0`!
0a!
0b!
0c!
0d!
0e!
0f!
1g!
0h!
0i!
0j!
0k!
0l!
0m!
0n!
0o!
0p!
0q!
1r!
1s!
1t!
1u!
0v!
0w!
0x!
0y!
0z!
0{!
0|!
0}!
0~!
0!"
0""
0#"
0$"
0%"
0&"
0'"
0("
0)"
0*"
1+"
0,"
0-"
0."
0/"
00"
01"
02"
03"
04"
05"
06"
07"
08"
09"
1:"
0;"
0<"
0="
0>"
0?"
0@"
0A"
0B"
0C"
1D"
0E"
0F"
0G"
0H"
0I"
0J"
0K"
0L"
0M"
0N"
0O"
1P"
0Q"
0R"
0S"
0T"
0U"
0V"
0W"
0X"
0Y"
0Z"
0["
0\"
0]"
0^"
0_"
1`"
1a"
1b"
1c"
0d"
0e"
0f"
0g"
1h"
1i"
0j"
0k"
0l"
1m"
0n"
0o"
0p"
0q"
1r"
1s"
1t"
0u"
0v"
1w"
1x"
1y"
1z"
0{"
0|"
0}"
1~"
0!#
0"#
0##
0$#
0%#
0&#
0'#
0(#
0)#
0*#
1+#
1,#
0-#
1.#
1/#
10#
11#
12#
03#
04#
05#
06#
07#
08#
09#
0:#
0;#
0<#
0=#
0>#
0?#
0@#
0A#
0B#
0C#
0D#
0E#
0F#
0G#
0H#
0I#
0J#
0K#
0L#
0M#
0N#
0O#
1P#
1Q#
0R#
0S#
0T#
1U#
1V#
1W#
1X#
1Y#
1Z#
1[#
1\#
0]#
1^#
1_#
0`#
0a#
1b#
0c#
0d#
0e#
1f#
0g#
0h#
0i#
0j#
0k#
0l#
0m#
0n#
0o#
0p#
0q#
0r#
$end
#5000
1!
1)!
1*!
1L#
1F#
1@#
15#
1!#
1n"
1X"
1L"
1E"
1;"
1,"
1h!
1i!
1-"
1<"
1F"
1o"
1"#
16#
1A#
1G#
1M#
1Y"
1M"
1N"
1Z"
#10000
0!
0)!
0*!
0L#
0F#
0@#
05#
0!#
0n"
0X"
0L"
0E"
0;"
0,"
0h!
0i!
0-"
0<"
0F"
0o"
0"#
06#
0A#
0G#
0M#
0Y"
0M"
0N"
0Z"
#15000
1!
1)!
1*!
1L#
1F#
1@#
15#
1!#
1n"
1X"
1L"
1E"
1;"
1,"
1h!
1i!
1-"
1<"
1F"
1o"
1"#
16#
1A#
1G#
1M#
1Y"
1M"
1N"
1Z"
#20000
0!
0)!
0*!
0L#
0F#
0@#
05#
0!#
0n"
0X"
0L"
0E"
0;"
0,"
0h!
0i!
0-"
0<"
0F"
0o"
0"#
06#
0A#
0G#
0M#
0Y"
0M"
0N"
0Z"
#25000
1!
1)!
1*!
1L#
1F#
1@#
15#
1!#
1n"
1X"
1L"
1E"
1;"
1,"
1h!
1i!
1-"
1<"
1F"
1o"
1"#
16#
1A#
1G#
1M#
1Y"
1M"
1N"
1Z"
#30000
0!
0)!
0*!
0L#
0F#
0@#
05#
0!#
0n"
0X"
0L"
0E"
0;"
0,"
0h!
0i!
0-"
0<"
0F"
0o"
0"#
06#
0A#
0G#
0M#
0Y"
0M"
0N"
0Z"
#35000
1!
1)!
1*!
1L#
1F#
1@#
15#
1!#
1n"
1X"
1L"
1E"
1;"
1,"
1h!
1i!
1-"
1<"
1F"
1o"
1"#
16#
1A#
1G#
1M#
1Y"
1M"
1N"
1Z"
#40000
0!
0)!
0*!
0L#
0F#
0@#
05#
0!#
0n"
0X"
0L"
0E"
0;"
0,"
0h!
0i!
0-"
0<"
0F"
0o"
0"#
06#
0A#
0G#
0M#
0Y"
0M"
0N"
0Z"
#45000
1!
1)!
1*!
1L#
1F#
1@#
15#
1!#
1n"
1X"
1L"
1E"
1;"
1,"
1h!
1i!
1-"
1<"
1F"
1o"
1"#
16#
1A#
1G#
1M#
1Y"
1M"
1N"
1Z"
#50000
0&
0!
0b#
0)!
0*!
1d#
0L#
0F#
0@#
05#
0!#
0n"
0X"
0L"
0E"
0;"
0,"
0h!
0i!
0-"
0<"
0F"
0o"
0"#
06#
0A#
0G#
0M#
1e#
0Y"
0M"
0N"
0Z"
1i#
0#!
1j#
0O
0f#
1k#
#55000
1!
1)!
1*!
1L#
1F#
1@#
15#
1!#
1n"
1X"
1L"
1E"
1;"
1,"
1h!
1i!
1-"
1<"
1F"
1o"
1"#
16#
1A#
1G#
1M#
1Y"
1M"
1N"
1Z"
#60000
0!
0)!
0*!
0L#
0F#
0@#
05#
0!#
0n"
0X"
0L"
0E"
0;"
0,"
0h!
0i!
0-"
0<"
0F"
0o"
0"#
06#
0A#
0G#
0M#
0Y"
0M"
0N"
0Z"
#65000
1!
1)!
1*!
1L#
1F#
1@#
15#
1!#
1n"
1X"
1L"
1E"
1;"
1,"
1h!
1i!
1-"
1<"
1F"
1o"
1"#
16#
1A#
1G#
1M#
1Y"
1M"
1N"
1Z"
#70000
0!
0)!
0*!
0L#
0F#
0@#
05#
0!#
0n"
0X"
0L"
0E"
0;"
0,"
0h!
0i!
0-"
0<"
0F"
0o"
0"#
06#
0A#
0G#
0M#
0Y"
0M"
0N"
0Z"
#75000
1!
1)!
1*!
1L#
1F#
1@#
15#
1!#
1n"
1X"
1L"
1E"
1;"
1,"
1h!
1i!
1-"
1<"
1F"
1o"
1"#
16#
1A#
1G#
1M#
1Y"
1M"
1N"
1Z"
#80000
0!
0)!
0*!
0L#
0F#
0@#
05#
0!#
0n"
0X"
0L"
0E"
0;"
0,"
0h!
0i!
0-"
0<"
0F"
0o"
0"#
06#
0A#
0G#
0M#
0Y"
0M"
0N"
0Z"
#85000
1!
1)!
1*!
1L#
1F#
1@#
15#
1!#
1n"
1X"
1L"
1E"
1;"
1,"
1h!
1i!
1-"
1<"
1F"
1o"
1"#
16#
1A#
1G#
1M#
1Y"
1M"
1N"
1Z"
#90000
0!
0)!
0*!
0L#
0F#
0@#
05#
0!#
0n"
0X"
0L"
0E"
0;"
0,"
0h!
0i!
0-"
0<"
0F"
0o"
0"#
06#
0A#
0G#
0M#
0Y"
0M"
0N"
0Z"
#95000
1!
1)!
1*!
1L#
1F#
1@#
15#
1!#
1n"
1X"
1L"
1E"
1;"
1,"
1h!
1i!
1-"
1<"
1F"
1o"
1"#
16#
1A#
1G#
1M#
1Y"
1M"
1N"
1Z"
#100000
0!
0)!
0*!
0L#
0F#
0@#
05#
0!#
0n"
0X"
0L"
0E"
0;"
0,"
0h!
0i!
0-"
0<"
0F"
0o"
0"#
06#
0A#
0G#
0M#
0Y"
0M"
0N"
0Z"
#105000
1!
1)!
1*!
1L#
1F#
1@#
15#
1!#
1n"
1X"
1L"
1E"
1;"
1,"
1h!
1i!
1-"
1<"
1F"
1o"
1"#
16#
1A#
1G#
1M#
1Y"
1M"
1N"
1Z"
#110000
0!
0)!
0*!
0L#
0F#
0@#
05#
0!#
0n"
0X"
0L"
0E"
0;"
0,"
0h!
0i!
0-"
0<"
0F"
0o"
0"#
06#
0A#
0G#
0M#
0Y"
0M"
0N"
0Z"
#115000
1!
1)!
1*!
1L#
1F#
1@#
15#
1!#
1n"
1X"
1L"
1E"
1;"
1,"
1h!
1i!
1-"
1<"
1F"
1o"
1"#
16#
1A#
1G#
1M#
1Y"
1M"
1N"
1Z"
#120000
0!
0)!
0*!
0L#
0F#
0@#
05#
0!#
0n"
0X"
0L"
0E"
0;"
0,"
0h!
0i!
0-"
0<"
0F"
0o"
0"#
06#
0A#
0G#
0M#
0Y"
0M"
0N"
0Z"
#125000
1!
1)!
1*!
1L#
1F#
1@#
15#
1!#
1n"
1X"
1L"
1E"
1;"
1,"
1h!
1i!
1-"
1<"
1F"
1o"
1"#
16#
1A#
1G#
1M#
1Y"
1M"
1N"
1Z"
#130000
0!
0)!
0*!
0L#
0F#
0@#
05#
0!#
0n"
0X"
0L"
0E"
0;"
0,"
0h!
0i!
0-"
0<"
0F"
0o"
0"#
06#
0A#
0G#
0M#
0Y"
0M"
0N"
0Z"
#135000
1!
1)!
1*!
1L#
1F#
1@#
15#
1!#
1n"
1X"
1L"
1E"
1;"
1,"
1h!
1i!
1-"
1<"
1F"
1o"
1"#
16#
1A#
1G#
1M#
1Y"
1M"
1N"
1Z"
#140000
0!
0)!
0*!
0L#
0F#
0@#
05#
0!#
0n"
0X"
0L"
0E"
0;"
0,"
0h!
0i!
0-"
0<"
0F"
0o"
0"#
06#
0A#
0G#
0M#
0Y"
0M"
0N"
0Z"
#145000
1!
1)!
1*!
1L#
1F#
1@#
15#
1!#
1n"
1X"
1L"
1E"
1;"
1,"
1h!
1i!
1-"
1<"
1F"
1o"
1"#
16#
1A#
1G#
1M#
1Y"
1M"
1N"
1Z"
#150000
1%
0!
1c#
0)!
0*!
0j#
0d#
0L#
0F#
0@#
05#
0!#
0n"
0X"
0L"
0E"
0;"
0,"
0h!
0i!
0-"
0<"
0F"
0o"
0"#
06#
0A#
0G#
0M#
0e#
0Y"
0M"
0N"
0Z"
0k#
#155000
1!
1)!
1*!
1L#
1F#
1@#
15#
1!#
1n"
1X"
1L"
1E"
1;"
1,"
1h!
1i!
1-"
1<"
1F"
1o"
1"#
16#
1A#
1G#
1M#
1Y"
1M"
1N"
1Z"
#160000
0!
0)!
0*!
0L#
0F#
0@#
05#
0!#
0n"
0X"
0L"
0E"
0;"
0,"
0h!
0i!
0-"
0<"
0F"
0o"
0"#
06#
0A#
0G#
0M#
0Y"
0M"
0N"
0Z"
#165000
1!
1)!
1*!
1L#
1F#
1@#
15#
1!#
1n"
1X"
1L"
1E"
1;"
1,"
1h!
1i!
1-"
1<"
1F"
1o"
1"#
16#
1A#
1G#
1M#
1Y"
1M"
1N"
1Z"
#170000
0!
0)!
0*!
0L#
0F#
0@#
05#
0!#
0n"
0X"
0L"
0E"
0;"
0,"
0h!
0i!
0-"
0<"
0F"
0o"
0"#
06#
0A#
0G#
0M#
0Y"
0M"
0N"
0Z"
#175000
1!
1)!
1*!
1L#
1F#
1@#
15#
1!#
1n"
1X"
1L"
1E"
1;"
1,"
1h!
1i!
1-"
1<"
1F"
1o"
1"#
16#
1A#
1G#
1M#
1Y"
1M"
1N"
1Z"
#180000
0!
0)!
0*!
0L#
0F#
0@#
05#
0!#
0n"
0X"
0L"
0E"
0;"
0,"
0h!
0i!
0-"
0<"
0F"
0o"
0"#
06#
0A#
0G#
0M#
0Y"
0M"
0N"
0Z"
#185000
1!
1)!
1*!
1L#
1F#
1@#
15#
1!#
1n"
1X"
1L"
1E"
1;"
1,"
1h!
1i!
1-"
1<"
1F"
1o"
1"#
16#
1A#
1G#
1M#
1Y"
1M"
1N"
1Z"
#190000
0!
0)!
0*!
0L#
0F#
0@#
05#
0!#
0n"
0X"
0L"
0E"
0;"
0,"
0h!
0i!
0-"
0<"
0F"
0o"
0"#
06#
0A#
0G#
0M#
0Y"
0M"
0N"
0Z"
