Merge/simulation/qsim/AutomaticRestaurant.msim.vcd
$comment
	File created using the following command:
		vcd file AutomaticRestaurant.msim.vcd -direction
$end
$date
	Thu Dec 13 16:55:32 2018
$end
$version
	ModelSim Version 10.5b
$end
$timescale
	1ps
$end

$scope module AutomaticRestaurant_vlg_vec_tst $end
$var reg 1 ! CLK1 $end
$var reg 1 " color_input0 $end
$var reg 1 # color_input1 $end
$var reg 1 $ color_input2 $end
$var reg 1 % DoorMinusBTN $end
$var reg 1 & DoorPlusBTN $end
$var reg 1 ' DoorResetBTN $end
$var reg 1 ( OpenerMinusBTN $end
$var reg 1 ) OpenerPlusBTN $end
$var reg 1 * OpenerSendBTN $end
$var reg 1 + RandomGame_BTN $end
$var reg 1 , seed1 $end
$var reg 1 - seed2 $end
$var reg 1 . table0 $end
$var reg 1 / table1 $end
$var reg 1 0 table2 $end
$var reg 1 1 table3 $end
$var reg 1 2 take_order $end
$var wire 1 3 Display1a $end
$var wire 1 4 Display1b $end
$var wire 1 5 Display1c $end
$var wire 1 6 Display1d $end
$var wire 1 7 Display1e $end
$var wire 1 8 Display1f $end
$var wire 1 9 Display1g $end
$var wire 1 : Display1h $end
$var wire 1 ; Display1i $end
$var wire 1 < Display1j $end
$var wire 1 = Display1k $end
$var wire 1 > Display1l $end
$var wire 1 ? Display1m $end
$var wire 1 @ Display1n $end
$var wire 1 A Display2a $end
$var wire 1 B Display2b $end
$var wire 1 C Display2c $end
$var wire 1 D Display2d $end
$var wire 1 E Display2e $end
$var wire 1 F Display2f $end
$var wire 1 G Display2g $end
$var wire 1 H Display2h $end
$var wire 1 I Display2i $end
$var wire 1 J Display2j $end
$var wire 1 K Display2k $end
$var wire 1 L Display2l $end
$var wire 1 M Display2m $end
$var wire 1 N Display2n $end
$var wire 1 O DoorDisplayRemain1 $end
$var wire 1 P DoorDisplayRemain2 $end
$var wire 1 Q DoorDisplayRemain3 $end
$var wire 1 R DoorDisplayRemain4 $end
$var wire 1 S NumOfOrder2POS1 $end
$var wire 1 T NumOfOrder2POS2 $end
$var wire 1 U NumOfOrder2POS3 $end
$var wire 1 V NumOfOrder2POS4 $end
$var wire 1 W pin_name1 $end
$var wire 1 X pin_name2 $end
$var wire 1 Y pin_name3 $end
$var wire 1 Z pin_name4 $end
$var wire 1 [ Random1 $end
$var wire 1 \ Random2 $end
$var wire 1 ] TotalPrice1 $end
$var wire 1 ^ TotalPrice2 $end
$var wire 1 _ TotalPrice3 $end
$var wire 1 ` TotalPrice4 $end
$var wire 1 a TotalPrice5 $end
$var wire 1 b TotalPrice6 $end
$var wire 1 c TotalPrice7 $end
$var wire 1 d TotalPrice8 $end
$var wire 1 e TotalPrice9 $end

$scope module i1 $end
$var wire 1 f gnd $end
$var wire 1 g vcc $end
$var wire 1 h unknown $end
$var tri1 1 i devclrn $end
$var tri1 1 j devpor $end
$var tri1 1 k devoe $end
$var wire 1 l Random1~output_o $end
$var wire 1 m Random2~output_o $end
$var wire 1 n Display1a~output_o $end
$var wire 1 o Display1b~output_o $end
$var wire 1 p Display1c~output_o $end
$var wire 1 q Display1d~output_o $end
$var wire 1 r Display1e~output_o $end
$var wire 1 s Display1f~output_o $end
$var wire 1 t Display1g~output_o $end
$var wire 1 u Display1h~output_o $end
$var wire 1 v Display1i~output_o $end
$var wire 1 w Display1j~output_o $end
$var wire 1 x Display1l~output_o $end
$var wire 1 y Display1k~output_o $end
$var wire 1 z Display1m~output_o $end
$var wire 1 { Display1n~output_o $end
$var wire 1 | Display2a~output_o $end
$var wire 1 } Display2b~output_o $end
$var wire 1 ~ Display2c~output_o $end
$var wire 1 !! Display2d~output_o $end
$var wire 1 "! Display2e~output_o $end
$var wire 1 #! Display2f~output_o $end
$var wire 1 $! Display2g~output_o $end
$var wire 1 %! Display2h~output_o $end
$var wire 1 &! Display2i~output_o $end
$var wire 1 '! Display2j~output_o $end
$var wire 1 (! Display2k~output_o $end
$var wire 1 )! Display2l~output_o $end
$var wire 1 *! Display2m~output_o $end
$var wire 1 +! Display2n~output_o $end
$var wire 1 ,! DoorDisplayRemain1~output_o $end
$var wire 1 -! DoorDisplayRemain2~output_o $end
$var wire 1 .! DoorDisplayRemain3~output_o $end
$var wire 1 /! DoorDisplayRemain4~output_o $end
$var wire 1 0! NumOfOrder2POS1~output_o $end
$var wire 1 1! NumOfOrder2POS2~output_o $end
$var wire 1 2! NumOfOrder2POS3~output_o $end
$var wire 1 3! NumOfOrder2POS4~output_o $end
$var wire 1 4! pin_name1~output_o $end
$var wire 1 5! pin_name2~output_o $end
$var wire 1 6! pin_name3~output_o $end
$var wire 1 7! pin_name4~output_o $end
$var wire 1 8! TotalPrice1~output_o $end
$var wire 1 9! TotalPrice2~output_o $end
$var wire 1 :! TotalPrice3~output_o $end
$var wire 1 ;! TotalPrice4~output_o $end
$var wire 1 <! TotalPrice5~output_o $end
$var wire 1 =! TotalPrice6~output_o $end
$var wire 1 >! TotalPrice7~output_o $end
$var wire 1 ?! TotalPrice8~output_o $end
$var wire 1 @! TotalPrice9~output_o $end
$var wire 1 A! RandomGame_BTN~input_o $end
$var wire 1 B! RandomGame_BTN~inputclkctrl_outclk $end
$var wire 1 C! CLK1~input_o $end
$var wire 1 D! CLK1~inputclkctrl_outclk $end
$var wire 1 E! seed1~input_o $end
$var wire 1 F! inst123|inst9~combout $end
$var wire 1 G! inst123|inst~q $end
$var wire 1 H! inst123|inst3~feeder_combout $end
$var wire 1 I! inst123|inst3~q $end
$var wire 1 J! inst123|inst4~feeder_combout $end
$var wire 1 K! inst123|inst4~q $end
$var wire 1 L! inst123|inst5~feeder_combout $end
$var wire 1 M! inst123|inst5~q $end
$var wire 1 N! inst123|inst6~feeder_combout $end
$var wire 1 O! inst123|inst6~q $end
$var wire 1 P! inst123|inst20~feeder_combout $end
$var wire 1 Q! inst123|inst20~q $end
$var wire 1 R! seed2~input_o $end
$var wire 1 S! inst123|inst15~combout $end
$var wire 1 T! inst123|inst10~q $end
$var wire 1 U! inst123|inst7~feeder_combout $end
$var wire 1 V! inst123|inst7~q $end
$var wire 1 W! inst123|inst11~feeder_combout $end
$var wire 1 X! inst123|inst11~q $end
$var wire 1 Y! inst123|inst12~feeder_combout $end
$var wire 1 Z! inst123|inst12~q $end
$var wire 1 [! inst123|inst13~feeder_combout $end
$var wire 1 \! inst123|inst13~q $end
$var wire 1 ]! inst123|inst21~feeder_combout $end
$var wire 1 ^! inst123|inst21~q $end
$var wire 1 _! take_order~input_o $end
$var wire 1 `! take_order~inputclkctrl_outclk $end
$var wire 1 a! OpenerSendBTN~input_o $end
$var wire 1 b! OpenerMinusBTN~input_o $end
$var wire 1 c! OpenerRemoteCtrl|inst123~combout $end
$var wire 1 d! OpenerRemoteCtrl|inst123~clkctrl_outclk $end
$var wire 1 e! color_input2~input_o $end
$var wire 1 f! OpenerRemoteCtrl|inst38~feeder_combout $end
$var wire 1 g! OpenerRemoteCtrl|inst38~q $end
$var wire 1 h! OpenerRemoteCtrl|inst41~feeder_combout $end
$var wire 1 i! OpenerPlusBTN~input_o $end
$var wire 1 j! OpenerPlusBTN~inputclkctrl_outclk $end
$var wire 1 k! OpenerRemoteCtrl|inst26~combout $end
$var wire 1 l! OpenerRemoteCtrl|inst26~clkctrl_outclk $end
$var wire 1 m! OpenerRemoteCtrl|inst~0_combout $end
$var wire 1 n! OpenerRemoteCtrl|inst~feeder_combout $end
$var wire 1 o! OpenerRemoteCtrl|inst~q $end
$var wire 1 p! OpenerRemoteCtrl|inst1~0_combout $end
$var wire 1 q! OpenerRemoteCtrl|inst1~feeder_combout $end
$var wire 1 r! OpenerRemoteCtrl|inst1~q $end
$var wire 1 s! OpenerRemoteCtrl|inst12~0_combout $end
$var wire 1 t! OpenerRemoteCtrl|inst12~1_combout $end
$var wire 1 u! OpenerRemoteCtrl|inst2~0_combout $end
$var wire 1 v! OpenerRemoteCtrl|inst2~feeder_combout $end
$var wire 1 w! OpenerRemoteCtrl|inst2~q $end
$var wire 1 x! OpenerRemoteCtrl|inst34~feeder_combout $end
$var wire 1 y! OpenerRemoteCtrl|inst34~q $end
$var wire 1 z! OpenerRemoteCtrl|inst51~feeder_combout $end
$var wire 1 {! OpenerRemoteCtrl|inst51~q $end
$var wire 1 |! OpenerRemoteCtrl|inst32~feeder_combout $end
$var wire 1 }! OpenerRemoteCtrl|inst32~q $end
$var wire 1 ~! OpenerRemoteCtrl|inst53~feeder_combout $end
$var wire 1 !" OpenerRemoteCtrl|inst53~q $end
$var wire 1 "" OpenerRemoteCtrl|inst3~0_combout $end
$var wire 1 #" OpenerRemoteCtrl|inst3~feeder_combout $end
$var wire 1 $" OpenerRemoteCtrl|inst3~q $end
$var wire 1 %" OpenerRemoteCtrl|inst35~feeder_combout $end
$var wire 1 &" OpenerRemoteCtrl|inst35~q $end
$var wire 1 '" OpenerRemoteCtrl|inst50~q $end
$var wire 1 (" OpenerRemoteCtrl|inst33~feeder_combout $end
$var wire 1 )" OpenerRemoteCtrl|inst33~q $end
$var wire 1 *" OpenerRemoteCtrl|inst52~feeder_combout $end
$var wire 1 +" OpenerRemoteCtrl|inst52~q $end
$var wire 1 ," OpenerRemoteCtrl|inst22~0_combout $end
$var wire 1 -" OpenerRemoteCtrl|inst41~q $end
$var wire 1 ." Order_Register|inst101~feeder_combout $end
$var wire 1 /" table0~input_o $end
$var wire 1 0" OpenerRemoteCtrl|inst46~feeder_combout $end
$var wire 1 1" OpenerRemoteCtrl|inst46~q $end
$var wire 1 2" OpenerRemoteCtrl|inst42~feeder_combout $end
$var wire 1 3" OpenerRemoteCtrl|inst42~q $end
$var wire 1 4" Order_Register|inst115~q $end
$var wire 1 5" table2~input_o $end
$var wire 1 6" OpenerRemoteCtrl|inst48~feeder_combout $end
$var wire 1 7" OpenerRemoteCtrl|inst48~q $end
$var wire 1 8" OpenerRemoteCtrl|inst44~feeder_combout $end
$var wire 1 9" OpenerRemoteCtrl|inst44~q $end
$var wire 1 :" Order_Register|inst117~q $end
$var wire 1 ;" table3~input_o $end
$var wire 1 <" OpenerRemoteCtrl|inst49~q $end
$var wire 1 =" OpenerRemoteCtrl|inst45~feeder_combout $end
$var wire 1 >" OpenerRemoteCtrl|inst45~q $end
$var wire 1 ?" Order_Register|inst118~feeder_combout $end
$var wire 1 @" Order_Register|inst118~q $end
$var wire 1 A" Order_Register|inst23~0_combout $end
$var wire 1 B" Order_Register|inst23~combout $end
$var wire 1 C" Order_Register|inst23~clkctrl_outclk $end
$var wire 1 D" table1~input_o $end
$var wire 1 E" OpenerRemoteCtrl|inst47~q $end
$var wire 1 F" OpenerRemoteCtrl|inst43~feeder_combout $end
$var wire 1 G" OpenerRemoteCtrl|inst43~q $end
$var wire 1 H" Order_Register|inst116~feeder_combout $end
$var wire 1 I" Order_Register|inst116~q $end
$var wire 1 J" Order_Register|inst112~feeder_combout $end
$var wire 1 K" Order_Register|inst108~feeder_combout $end
$var wire 1 L" Order_Register|inst113~feeder_combout $end
$var wire 1 M" Order_Register|inst113~q $end
$var wire 1 N" Order_Register|inst109~feeder_combout $end
$var wire 1 O" Order_Register|inst109~q $end
$var wire 1 P" Order_Register|inst105~feeder_combout $end
$var wire 1 Q" Order_Register|inst105~q $end
$var wire 1 R" Order_Register|inst111~feeder_combout $end
$var wire 1 S" Order_Register|inst111~q $end
$var wire 1 T" Order_Register|inst107~feeder_combout $end
$var wire 1 U" Order_Register|inst107~q $end
$var wire 1 V" Order_Register|inst103~q $end
$var wire 1 W" Order_Register|inst104~q $end
$var wire 1 X" Order_Register|inst20~0_combout $end
$var wire 1 Y" Order_Register|inst20~combout $end
$var wire 1 Z" Order_Register|inst20~clkctrl_outclk $end
$var wire 1 [" Order_Register|inst106~q $end
$var wire 1 \" Order_Register|inst83~q $end
$var wire 1 ]" Order_Register|inst85~q $end
$var wire 1 ^" Order_Register|inst86~feeder_combout $end
$var wire 1 _" Order_Register|inst86~q $end
$var wire 1 `" Order_Register|inst11~0_combout $end
$var wire 1 a" Order_Register|inst11~combout $end
$var wire 1 b" Order_Register|inst11~clkctrl_outclk $end
$var wire 1 c" Order_Register|inst84~feeder_combout $end
$var wire 1 d" Order_Register|inst84~q $end
$var wire 1 e" Order_Register|inst80~feeder_combout $end
$var wire 1 f" Order_Register|inst80~q $end
$var wire 1 g" Order_Register|inst79~feeder_combout $end
$var wire 1 h" Order_Register|inst79~q $end
$var wire 1 i" Order_Register|inst8~0_combout $end
$var wire 1 j" Order_Register|inst82~feeder_combout $end
$var wire 1 k" Order_Register|inst82~q $end
$var wire 1 l" Order_Register|inst8~combout $end
$var wire 1 m" Order_Register|inst8~clkctrl_outclk $end
$var wire 1 n" Order_Register|inst81~q $end
$var wire 1 o" Order_Register|inst77~feeder_combout $end
$var wire 1 p" Order_Register|inst77~q $end
$var wire 1 q" Order_Register|inst75~feeder_combout $end
$var wire 1 r" Order_Register|inst75~q $end
$var wire 1 s" Order_Register|inst78~feeder_combout $end
$var wire 1 t" Order_Register|inst78~q $end
$var wire 1 u" Order_Register|inst6~0_combout $end
$var wire 1 v" Order_Register|inst6~combout $end
$var wire 1 w" Order_Register|inst6~clkctrl_outclk $end
$var wire 1 x" Order_Register|inst76~feeder_combout $end
$var wire 1 y" Order_Register|inst76~q $end
$var wire 1 z" Order_Register|inst74~feeder_combout $end
$var wire 1 {" Order_Register|inst74~q $end
$var wire 1 |" Order_Register|inst73~feeder_combout $end
$var wire 1 }" Order_Register|inst73~q $end
$var wire 1 ~" Order_Register|inst71~q $end
$var wire 1 !# Order_Register|inst5~0_combout $end
$var wire 1 "# Order_Register|inst5~combout $end
$var wire 1 ## Order_Register|inst5~clkctrl_outclk $end
$var wire 1 $# Order_Register|inst72~q $end
$var wire 1 %# Order_Register|inst256~4_combout $end
$var wire 1 &# Order_Register|inst91~feeder_combout $end
$var wire 1 '# Order_Register|inst91~q $end
$var wire 1 (# Order_Register|inst256~5_combout $end
$var wire 1 )# Order_Register|inst256~3_combout $end
$var wire 1 *# Order_Register|inst256~2_combout $end
$var wire 1 +# Order_Register|inst256~6_combout $end
$var wire 1 ,# Order_Register|inst14~0_combout $end
$var wire 1 -# Order_Register|inst88~feeder_combout $end
$var wire 1 .# Order_Register|inst88~q $end
$var wire 1 /# Order_Register|inst256~0_combout $end
$var wire 1 0# Order_Register|inst256~1_combout $end
$var wire 1 1# Order_Register|inst256~7_combout $end
$var wire 1 2# Order_Register|inst108~q $end
$var wire 1 3# Order_Register|inst21~0_combout $end
$var wire 1 4# Order_Register|inst21~combout $end
$var wire 1 5# Order_Register|inst21~clkctrl_outclk $end
$var wire 1 6# Order_Register|inst110~feeder_combout $end
$var wire 1 7# Order_Register|inst110~q $end
$var wire 1 8# Order_Register|inst97~feeder_combout $end
$var wire 1 9# Order_Register|inst97~q $end
$var wire 1 :# Order_Register|inst257~0_combout $end
$var wire 1 ;# Order_Register|inst15~0_combout $end
$var wire 1 <# Order_Register|inst257~1_combout $end
$var wire 1 =# Order_Register|inst257~5_combout $end
$var wire 1 ># Order_Register|inst257~2_combout $end
$var wire 1 ?# Order_Register|inst257~3_combout $end
$var wire 1 @# Order_Register|inst257~4_combout $end
$var wire 1 A# Order_Register|inst257~6_combout $end
$var wire 1 B# Order_Register|inst257~7_combout $end
$var wire 1 C# Order_Register|inst112~q $end
$var wire 1 D# Order_Register|inst22~0_combout $end
$var wire 1 E# Order_Register|inst22~combout $end
$var wire 1 F# Order_Register|inst22~clkctrl_outclk $end
$var wire 1 G# Order_Register|inst114~feeder_combout $end
$var wire 1 H# Order_Register|inst114~q $end
$var wire 1 I# color_input1~input_o $end
$var wire 1 J# OpenerRemoteCtrl|inst37~feeder_combout $end
$var wire 1 K# OpenerRemoteCtrl|inst37~q $end
$var wire 1 L# OpenerRemoteCtrl|inst40~feeder_combout $end
$var wire 1 M# OpenerRemoteCtrl|inst40~q $end
$var wire 1 N# Order_Register|inst244~feeder_combout $end
$var wire 1 O# Order_Register|inst244~q $end
$var wire 1 P# Order_Register|inst16~0_combout $end
$var wire 1 Q# Order_Register|inst258~0_combout $end
$var wire 1 R# Order_Register|inst258~1_combout $end
$var wire 1 S# Order_Register|inst258~2_combout $end
$var wire 1 T# Order_Register|inst258~5_combout $end
$var wire 1 U# Order_Register|inst258~3_combout $end
$var wire 1 V# Order_Register|inst258~4_combout $end
$var wire 1 W# Order_Register|inst258~6_combout $end
$var wire 1 X# Order_Register|inst258~7_combout $end
$var wire 1 Y# Order_Register|inst101~q $end
$var wire 1 Z# Order_Register|inst16~combout $end
$var wire 1 [# color_input0~input_o $end
$var wire 1 \# OpenerRemoteCtrl|inst36~q $end
$var wire 1 ]# OpenerRemoteCtrl|inst39~feeder_combout $end
$var wire 1 ^# OpenerRemoteCtrl|inst39~q $end
$var wire 1 _# Order_Register|inst99~feeder_combout $end
$var wire 1 `# Order_Register|inst99~q $end
$var wire 1 a# Order_Register|inst95~feeder_combout $end
$var wire 1 b# Order_Register|inst95~q $end
$var wire 1 c# Order_Register|inst15~combout $end
$var wire 1 d# Order_Register|inst96~feeder_combout $end
$var wire 1 e# Order_Register|inst96~q $end
$var wire 1 f# Order_Register|inst92~feeder_combout $end
$var wire 1 g# Order_Register|inst92~q $end
$var wire 1 h# Order_Register|inst14~combout $end
$var wire 1 i# Order_Register|inst93~feeder_combout $end
$var wire 1 j# Order_Register|inst93~q $end
$var wire 1 k# Order_Register|inst89~feeder_combout $end
$var wire 1 l# Order_Register|inst89~q $end
$var wire 1 m# Order_Register|inst12~combout $end
$var wire 1 n# Order_Register|inst87~q $end
$var wire 1 o# id2SegDecoder|inst26~combout $end
$var wire 1 p# id2SegDecoder|inst29~combout $end
$var wire 1 q# inst15~combout $end
$var wire 1 r# id2SegDecoder|inst31~combout $end
$var wire 1 s# id2SegDecoder|inst9~combout $end
$var wire 1 t# inst16~combout $end
$var wire 1 u# id2SegDecoder|inst17~0_combout $end
$var wire 1 v# id2SegDecoder|inst18~combout $end
$var wire 1 w# Order_Register|inst12~0_combout $end
$var wire 1 x# id2SegDecoder|inst22~combout $end
$var wire 1 y# id2SegDecoder|inst24~combout $end
$var wire 1 z# table2SegDecoder|inst5~combout $end
$var wire 1 {# table2SegDecoder|inst8~combout $end
$var wire 1 |# table2SegDecoder|inst39~0_combout $end
$var wire 1 }# table2SegDecoder|inst13~0_combout $end
$var wire 1 ~# table2SegDecoder|inst18~0_combout $end
$var wire 1 !$ table2SegDecoder|inst27~0_combout $end
$var wire 1 "$ table2SegDecoder|inst30~combout $end
$var wire 1 #$ table2SegDecoder|inst32~0_combout $end
$var wire 1 $$ DoorPlusBTN~input_o $end
$var wire 1 %$ DoorMinusBTN~input_o $end
$var wire 1 &$ Remain_Table|inst26~combout $end
$var wire 1 '$ Remain_Table|inst26~clkctrl_outclk $end
$var wire 1 ($ Remain_Table|toggle0bit~0_combout $end
$var wire 1 )$ DoorResetBTN~input_o $end
$var wire 1 *$ Remain_Table|toggle0bit~q $end
$var wire 1 +$ Remain_Table|toggle1bit~0_combout $end
$var wire 1 ,$ Remain_Table|toggle1bit~feeder_combout $end
$var wire 1 -$ Remain_Table|toggle1bit~q $end
$var wire 1 .$ Remain_Table|inst12~0_combout $end
$var wire 1 /$ Remain_Table|inst12~1_combout $end
$var wire 1 0$ Remain_Table|toggle2bit~0_combout $end
$var wire 1 1$ Remain_Table|toggle2bit~q $end
$var wire 1 2$ Remain_Table|toggle3bit~0_combout $end
$var wire 1 3$ Remain_Table|toggle3bit~q $end
$var wire 1 4$ inst17~combout $end
$var wire 1 5$ inst17~clkctrl_outclk $end
$var wire 1 6$ inst|inst59~q $end
$var wire 1 7$ inst|inst51~feeder_combout $end
$var wire 1 8$ inst|inst51~q $end
$var wire 1 9$ inst14~combout $end
$var wire 1 :$ inst14~clkctrl_outclk $end
$var wire 1 ;$ inst|inst61~feeder_combout $end
$var wire 1 <$ inst|inst61~q $end
$var wire 1 =$ inst15~clkctrl_outclk $end
$var wire 1 >$ inst|inst65~feeder_combout $end
$var wire 1 ?$ inst|inst65~q $end
$var wire 1 @$ inst|inst58~q $end
$var wire 1 A$ inst13~combout $end
$var wire 1 B$ inst13~clkctrl_outclk $end
$var wire 1 C$ inst|inst60~feeder_combout $end
$var wire 1 D$ inst|inst60~q $end
$var wire 1 E$ inst521|inst5|27~0_combout $end
$var wire 1 F$ inst19~combout $end
$var wire 1 G$ inst18~combout $end
$var wire 1 H$ inst|inst72~q $end
$var wire 1 I$ inst521|inst12|27~0_combout $end
$var wire 1 J$ inst521|inst3|27~0_combout $end
$var wire 1 K$ inst521|inst9|27~0_combout $end
$var wire 1 L$ inst18~clkctrl_outclk $end
$var wire 1 M$ inst|inst67~q $end
$var wire 1 N$ inst521|inst9|43~0_combout $end
$var wire 1 O$ inst521|inst5|23~0_combout $end
$var wire 1 P$ inst|inst71~q $end
$var wire 1 Q$ inst521|inst3|43~0_combout $end
$var wire 1 R$ inst|inst80~q $end
$var wire 1 S$ inst|inst50~feeder_combout $end
$var wire 1 T$ inst|inst50~q $end
$var wire 1 U$ inst|inst73~feeder_combout $end
$var wire 1 V$ inst|inst73~q $end
$var wire 1 W$ inst521|inst|43~0_combout $end
$var wire 1 X$ inst521|inst5|43~0_combout $end
$var wire 1 Y$ inst521|inst9|43~1_combout $end
$var wire 1 Z$ inst|inst68~q $end
$var wire 1 [$ inst521|inst12|43~combout $end
$var wire 1 \$ inst521|inst12|51~0_combout $end
$var wire 1 ]$ inst521|inst7|43~0_combout $end
$var wire 1 ^$ inst521|inst7|27~0_combout $end
$var wire 1 _$ inst521|inst9|51~0_combout $end
$var wire 1 `$ inst|inst52~feeder_combout $end
$var wire 1 a$ inst|inst52~q $end
$var wire 1 b$ inst521|inst5|1~0_combout $end
$var wire 1 c$ inst521|inst5|51~0_combout $end
$var wire 1 d$ inst|inst64~feeder_combout $end
$var wire 1 e$ inst|inst64~q $end
$var wire 1 f$ inst521|inst3|27~1_combout $end
$var wire 1 g$ inst521|inst3|51~0_combout $end
$var wire 1 h$ inst|inst69~feeder_combout $end
$var wire 1 i$ inst|inst69~q $end
$var wire 1 j$ inst|inst81~feeder_combout $end
$var wire 1 k$ inst|inst81~q $end
$var wire 1 l$ inst521|inst|2~0_combout $end
$var wire 1 m$ inst521|inst|44~0_combout $end
$var wire 1 n$ inst521|inst5|44~0_combout $end
$var wire 1 o$ inst521|inst7|51~0_combout $end
$var wire 1 p$ inst|inst79~q $end
$var wire 1 q$ inst521|inst7|44~0_combout $end
$var wire 1 r$ inst521|inst12|44~combout $end
$var wire 1 s$ inst521|inst12|2~0_combout $end
$var wire 1 t$ inst|inst76~feeder_combout $end
$var wire 1 u$ inst|inst76~q $end
$var wire 1 v$ inst521|inst9|45~0_combout $end
$var wire 1 w$ inst|inst66~q $end
$var wire 1 x$ inst521|inst|45~0_combout $end
$var wire 1 y$ inst521|inst|45~1_combout $end
$var wire 1 z$ inst521|inst3|1~0_combout $end
$var wire 1 {$ inst|inst77~feeder_combout $end
$var wire 1 |$ inst|inst77~q $end
$var wire 1 }$ inst521|inst3|45~0_combout $end
$var wire 1 ~$ inst521|inst5|2~0_combout $end
$var wire 1 !% inst|inst63~q $end
$var wire 1 "% inst|inst75~q $end
$var wire 1 #% inst521|inst7|45~0_combout $end
$var wire 1 $% inst521|inst7|45~1_combout $end
$var wire 1 %% inst|inst74~q $end
$var wire 1 &% inst521|inst12|45~combout $end
$var wire 1 '% inst521|inst9|2~0_combout $end
$var wire 1 (% inst521|inst9|2~1_combout $end
$var wire 1 )% inst521|inst7|2~0_combout $end
$var wire 1 *% inst521|inst7|2~1_combout $end
$var wire 1 +% inst521|inst5|45~0_combout $end
$var wire 1 ,% inst521|inst7|2~2_combout $end
$var wire 1 -% inst521|inst|2~1_combout $end
$var wire 1 .% inst521|inst5|2~1_combout $end
$var wire 1 /% inst521|inst3|2~0_combout $end
$var wire 1 0% inst521|inst8|42~combout $end
$var wire 1 1% inst521|inst12|2~1_combout $end
$var wire 1 2% inst521|inst13|42~combout $end
$var wire 1 3% inst521|inst8|43~combout $end
$var wire 1 4% inst521|inst13|43~combout $end
$var wire 1 5% inst521|inst10|18~combout $end
$var wire 1 6% inst521|inst13|54~0_combout $end
$var wire 1 7% inst521|inst8|44~0_combout $end
$var wire 1 8% inst521|inst13|44~combout $end
$upscope $end
$upscope $end
$enddefinitions $end
#0
$dumpvars
0!
0"
0#
0$
0%
0&
0'
0(
0)
0*
0+
0,
0-
0.
0/
00
01
02
03
04
15
16
07
08
19
0:
1;
1<
1=
0>
0?
1@
1A
1B
1C
1D
1E
1F
0G
1H
1I
0J
1K
1L
0M
0N
1O
1P
1Q
1R
0S
0T
0U
0V
0W
0X
0Y
0Z
0[
0\
1]
0^
0_
0`
0a
0b
0c
1d
1e
0f
1g
xh
1i
1j
1k
0l
0m
0n
0o
1p
1q
0r
0s
1t
0u
1v
1w
0x
1y
0z
1{
1|
1}
1~
1!!
1"!
1#!
0$!
1%!
1&!
0'!
1(!
1)!
0*!
0+!
1,!
1-!
1.!
1/!
00!
01!
02!
03!
04!
05!
06!
07!
18!
09!
0:!
0;!
0<!
0=!
0>!
1?!
1@!
0A!
0B!
0C!
0D!
0E!
0F!
0G!
0H!
0I!
0J!
0K!
0L!
0M!
0N!
0O!
0P!
0Q!
0R!
0S!
0T!
0U!
0V!
0W!
0X!
0Y!
0Z!
0[!
0\!
0]!
0^!
0_!
0`!
0a!
0b!
0c!
0d!
0e!
0f!
0g!
0h!
0i!
0j!
1k!
1l!
1m!
1n!
0o!
0p!
0q!
0r!
0s!
0t!
0u!
0v!
0w!
0x!
0y!
0z!
0{!
0|!
0}!
0~!
0!"
0""
0#"
0$"
0%"
0&"
0'"
0("
0)"
0*"
0+"
0,"
0-"
0."
0/"
00"
01"
02"
03"
04"
05"
06"
07"
08"
09"
0:"
0;"
0<"
0="
0>"
0?"
0@"
1A"
0B"
0C"
0D"
0E"
0F"
0G"
0H"
0I"
0J"
0K"
0L"
0M"
0N"
0O"
0P"
0Q"
0R"
0S"
0T"
0U"
0V"
0W"
1X"
0Y"
0Z"
0["
0\"
0]"
0^"
0_"
1`"
0a"
0b"
0c"
0d"
0e"
0f"
0g"
0h"
1i"
0j"
0k"
0l"
0m"
0n"
0o"
0p"
0q"
0r"
0s"
0t"
1u"
0v"
0w"
0x"
0y"
0z"
0{"
0|"
0}"
0~"
0!#
0"#
0##
0$#
1%#
0&#
0'#
1(#
1)#
1*#
1+#
1,#
0-#
0.#
1/#
00#
01#
02#
13#
04#
05#
06#
07#
08#
09#
1:#
1;#
0<#
1=#
1>#
1?#
1@#
1A#
0B#
0C#
1D#
0E#
0F#
0G#
0H#
0I#
0J#
0K#
0L#
0M#
0N#
0O#
1P#
1Q#
0R#
1S#
1T#
1U#
1V#
1W#
0X#
0Y#
0Z#
0[#
0\#
0]#
0^#
0_#
0`#
0a#
0b#
0c#
0d#
0e#
0f#
0g#
0h#
0i#
0j#
0k#
0l#
0m#
0n#
0o#
1p#
0q#
0r#
0s#
0t#
1u#
1v#
1w#
1x#
1y#
1z#
1{#
1|#
0}#
1~#
1!$
0"$
0#$
0$$
0%$
1&$
1'$
1($
0)$
0*$
0+$
0,$
0-$
0.$
0/$
00$
01$
02$
03$
04$
05$
06$
07$
08$
09$
0:$
0;$
0<$
0=$
0>$
0?$
0@$
0A$
0B$
0C$
0D$
0E$
0F$
0G$
0H$
0I$
0J$
0K$
0L$
0M$
0N$
0O$
0P$
0Q$
0R$
0S$
0T$
0U$
0V$
0W$
0X$
0Y$
0Z$
0[$
0\$
0]$
0^$
1_$
0`$
0a$
1b$
0c$
0d$
0e$
0f$
1g$
0h$
0i$
0j$
0k$
1l$
1m$
0n$
0o$
0p$
1q$
0r$
1s$
0t$
0u$
1v$
0w$
0x$
1y$
1z$
0{$
0|$
0}$
1~$
0!%
0"%
1#%
0$%
0%%
0&%
1'%
1(%
0)%
1*%
1+%
1,%
1-%
1.%
1/%
00%
11%
02%
13%
14%
15%
06%
17%
18%
$end
#2500
1-
1R!
1S!
#5000
1!
1,
0-
1C!
1E!
0R!
1D!
1E#
14#
1!#
1v"
1l"
1a"
1Y"
1B"
1C"
1Z"
1b"
1m"
1w"
15#
1F#
1m#
1h#
1c#
1Z#
1F!
0S!
1"#
1##
1T!
1U!
#7500
1-
1R!
1S!
#10000
0!
0,
0-
0C!
0E!
0R!
0D!
0E#
04#
0!#
0v"
0l"
0a"
0Y"
0B"
0C"
0Z"
0b"
0m"
0w"
05#
0F#
0m#
0h#
0c#
0Z#
0F!
0S!
0"#
0##
#12500
1-
1R!
1S!
#15000
1!
1,
0-
1C!
1E!
0R!
1D!
1E#
14#
1!#
1v"
1l"
1a"
1Y"
1B"
1C"
1Z"
1b"
1m"
1w"
15#
1F#
1m#
1h#
1c#
1Z#
1F!
0S!
1"#
1##
1V!
1W!
1S!
#17500
1-
1R!
#20000
0!
0,
0-
0C!
0E!
0R!
0D!
0E#
04#
0!#
0v"
0l"
0a"
0Y"
0B"
0C"
0Z"
0b"
0m"
0w"
05#
0F#
0m#
0h#
0c#
0Z#
0F!
0"#
0##
#22500
1-
1R!
#25000
1!
1,
0-
1C!
1E!
0R!
1D!
1E#
14#
1!#
1v"
1l"
1a"
1Y"
1B"
1C"
1Z"
1b"
1m"
1w"
15#
1F#
1m#
1h#
1c#
1Z#
1F!
1"#
1##
1X!
1Y!
#27500
1-
1R!
#30000
1+
0!
0,
0-
1A!
0C!
0E!
0R!
0D!
1B!
0E#
04#
0!#
0v"
0l"
0a"
0Y"
0B"
0C"
0Z"
0b"
0m"
0w"
05#
0F#
0m#
0h#
0c#
0Z#
0F!
0"#
0##
#32500
1-
1R!
